%!PS-Adobe-2.0 EPSF-2.0
%%Title: /home/leonardo/Repositorios/sistema-autonomo-de-triagem-hospitalar/Monografia/Imagens/Ipe/extracaoMFCC.dia
%%Creator: Dia v0.97+git
%%CreationDate: Sat Nov  7 01:22:35 2020
%%For: leonardo
%%Orientation: Portrait
%%Magnification: 1.0000
%%BoundingBox: 0 0 630 298
%%BeginSetup
%%EndSetup
%%EndComments
%%BeginProlog
[ /.notdef /.notdef /.notdef /.notdef /.notdef /.notdef /.notdef /.notdef /.notdef /.notdef
/.notdef /.notdef /.notdef /.notdef /.notdef /.notdef /.notdef /.notdef /.notdef /.notdef
/.notdef /.notdef /.notdef /.notdef /.notdef /.notdef /.notdef /.notdef /.notdef /.notdef
/.notdef /.notdef /space /exclam /quotedbl /numbersign /dollar /percent /ampersand /quoteright
/parenleft /parenright /asterisk /plus /comma /hyphen /period /slash /zero /one
/two /three /four /five /six /seven /eight /nine /colon /semicolon
/less /equal /greater /question /at /A /B /C /D /E
/F /G /H /I /J /K /L /M /N /O
/P /Q /R /S /T /U /V /W /X /Y
/Z /bracketleft /backslash /bracketright /asciicircum /underscore /quoteleft /a /b /c
/d /e /f /g /h /i /j /k /l /m
/n /o /p /q /r /s /t /u /v /w
/x /y /z /braceleft /bar /braceright /asciitilde /.notdef /.notdef /.notdef
/.notdef /.notdef /.notdef /.notdef /.notdef /.notdef /.notdef /.notdef /.notdef /.notdef
/.notdef /.notdef /.notdef /.notdef /.notdef /.notdef /.notdef /.notdef /.notdef /.notdef
/.notdef /.notdef /.notdef /.notdef /.notdef /.notdef /.notdef /.notdef /.notdef /.notdef
/space /exclamdown /cent /sterling /currency /yen /brokenbar /section /dieresis /copyright
/ordfeminine /guillemotleft /logicalnot /hyphen /registered /macron /degree /plusminus /twosuperior /threesuperior
/acute /mu /paragraph /periodcentered /cedilla /onesuperior /ordmasculine /guillemotright /onequarter /onehalf
/threequarters /questiondown /Agrave /Aacute /Acircumflex /Atilde /Adieresis /Aring /AE /Ccedilla
/Egrave /Eacute /Ecircumflex /Edieresis /Igrave /Iacute /Icircumflex /Idieresis /Eth /Ntilde
/Ograve /Oacute /Ocircumflex /Otilde /Odieresis /multiply /Oslash /Ugrave /Uacute /Ucircumflex
/Udieresis /Yacute /Thorn /germandbls /agrave /aacute /acircumflex /atilde /adieresis /aring
/ae /ccedilla /egrave /eacute /ecircumflex /edieresis /igrave /iacute /icircumflex /idieresis
/eth /ntilde /ograve /oacute /ocircumflex /otilde /odieresis /divide /oslash /ugrave
/uacute /ucircumflex /udieresis /yacute /thorn /ydieresis] /isolatin1encoding exch def
/cp {closepath} bind def
/c {curveto} bind def
/f {fill} bind def
/a {arc} bind def
/ef {eofill} bind def
/ex {exch} bind def
/gr {grestore} bind def
/gs {gsave} bind def
/sa {save} bind def
/rs {restore} bind def
/l {lineto} bind def
/m {moveto} bind def
/rm {rmoveto} bind def
/n {newpath} bind def
/s {stroke} bind def
/sh {show} bind def
/slc {setlinecap} bind def
/slj {setlinejoin} bind def
/slw {setlinewidth} bind def
/srgb {setrgbcolor} bind def
/rot {rotate} bind def
/sc {scale} bind def
/sd {setdash} bind def
/ff {findfont} bind def
/sf {setfont} bind def
/scf {scalefont} bind def
/sw {stringwidth pop} bind def
/tr {translate} bind def

/ellipsedict 8 dict def
ellipsedict /mtrx matrix put
/ellipse
{ ellipsedict begin
   /endangle exch def
   /startangle exch def
   /yrad exch def
   /xrad exch def
   /y exch def
   /x exch def   /savematrix mtrx currentmatrix def
   x y tr xrad yrad sc
   0 0 1 startangle endangle arc
   savematrix setmatrix
   end
} def

/mergeprocs {
dup length
3 -1 roll
dup
length
dup
5 1 roll
3 -1 roll
add
array cvx
dup
3 -1 roll
0 exch
putinterval
dup
4 2 roll
putinterval
} bind def
/dpi_x 300 def
/dpi_y 300 def
/conicto {
    /to_y exch def
    /to_x exch def
    /conic_cntrl_y exch def
    /conic_cntrl_x exch def
    currentpoint
    /p0_y exch def
    /p0_x exch def
    /p1_x p0_x conic_cntrl_x p0_x sub 2 3 div mul add def
    /p1_y p0_y conic_cntrl_y p0_y sub 2 3 div mul add def
    /p2_x p1_x to_x p0_x sub 1 3 div mul add def
    /p2_y p1_y to_y p0_y sub 1 3 div mul add def
    p1_x p1_y p2_x p2_y to_x to_y curveto
} bind def
/start_ol { gsave 1.1 dpi_x div dup scale} bind def
/end_ol { closepath fill grestore } bind def
28.346000 -28.346000 scale
-6.950000 -16.650000 translate
%%EndProlog


0.000000 0.000000 0.000000 srgb
gsave 8.228947 6.732735 translate 0.035278 -0.035278 scale
start_ol
2603 3392 moveto
2603 2944 lineto
2330 3073 2087 3136 conicto
1845 3200 1620 3200 conicto
1228 3200 1015 3052 conicto
803 2904 803 2631 conicto
803 2402 944 2285 conicto
1086 2169 1480 2097 conicto
1769 2039 lineto
2306 1937 2561 1678 conicto
2817 1420 2817 986 conicto
2817 469 2471 202 conicto
2126 -64 1458 -64 conicto
1207 -64 923 0 conicto
639 65 335 192 conicto
335 704 lineto
627 513 907 416 conicto
1188 320 1459 320 conicto
1869 320 2092 485 conicto
2316 650 2316 955 conicto
2316 1221 2155 1371 conicto
1995 1522 1629 1597 conicto
1337 1652 lineto
801 1756 561 1978 conicto
321 2201 321 2597 conicto
321 3056 652 3320 conicto
984 3584 1565 3584 conicto
1815 3584 2073 3536 conicto
2332 3488 2603 3392 conicto
end_ol grestore 
gsave 8.636066 6.732735 translate 0.035278 -0.035278 scale
start_ol
458 2688 moveto
895 2688 lineto
895 0 lineto
458 0 lineto
458 2688 lineto
458 3712 moveto
895 3712 lineto
895 3136 lineto
458 3136 lineto
458 3712 lineto
end_ol grestore 
gsave 8.813395 6.732735 translate 0.035278 -0.035278 scale
start_ol
2670 1646 moveto
2670 0 lineto
2233 0 lineto
2233 1632 lineto
2233 2001 2085 2184 conicto
1938 2368 1644 2368 conicto
1290 2368 1085 2146 conicto
881 1925 881 1542 conicto
881 0 lineto
442 0 lineto
442 2688 lineto
881 2688 lineto
881 2304 lineto
1038 2529 1250 2640 conicto
1463 2752 1741 2752 conicto
2200 2752 2435 2471 conicto
2670 2191 2670 1646 conicto
end_ol grestore 
gsave 9.218009 6.732735 translate 0.035278 -0.035278 scale
start_ol
1667 1344 moveto
1137 1344 933 1225 conicto
729 1106 729 818 conicto
729 589 882 454 conicto
1035 320 1299 320 conicto
1663 320 1882 572 conicto
2102 825 2102 1244 conicto
2102 1344 lineto
1667 1344 lineto
2539 1513 moveto
2539 0 lineto
2102 0 lineto
2102 384 lineto
1952 154 1729 45 conicto
1506 -64 1183 -64 conicto
774 -64 533 162 conicto
292 389 292 769 conicto
292 1213 592 1438 conicto
893 1664 1489 1664 conicto
2102 1664 lineto
2102 1712 lineto
2102 2025 1903 2196 conicto
1705 2368 1347 2368 conicto
1119 2368 903 2320 conicto
687 2272 487 2176 conicto
487 2560 lineto
727 2656 952 2704 conicto
1178 2752 1392 2752 conicto
1969 2752 2254 2444 conicto
2539 2137 2539 1513 conicto
end_ol grestore 
gsave 9.610138 6.732735 translate 0.035278 -0.035278 scale
start_ol
458 3712 moveto
895 3712 lineto
895 0 lineto
458 0 lineto
458 3712 lineto
end_ol grestore 
gsave 9.787467 6.732735 translate 0.035278 -0.035278 scale
start_ol
end_ol grestore 
gsave 9.989774 6.732735 translate 0.035278 -0.035278 scale
start_ol
2209 2304 moveto
2209 3712 lineto
2646 3712 lineto
2646 0 lineto
2209 0 lineto
2209 384 lineto
2071 157 1861 46 conicto
1651 -64 1356 -64 conicto
874 -64 571 324 conicto
268 712 268 1344 conicto
268 1976 571 2364 conicto
874 2752 1356 2752 conicto
1651 2752 1861 2641 conicto
2071 2531 2209 2304 conicto
720 1344 moveto
720 865 918 592 conicto
1117 320 1463 320 conicto
1810 320 2009 592 conicto
2209 865 2209 1344 conicto
2209 1823 2009 2095 conicto
1810 2368 1463 2368 conicto
1117 2368 918 2095 conicto
720 1823 720 1344 conicto
end_ol grestore 
gsave 10.396893 6.732735 translate 0.035278 -0.035278 scale
start_ol
2734 1480 moveto
2734 1280 lineto
724 1280 lineto
753 811 996 565 conicto
1240 320 1674 320 conicto
1926 320 2162 384 conicto
2399 448 2632 576 conicto
2632 192 lineto
2397 67 2150 1 conicto
1903 -64 1648 -64 conicto
1012 -64 640 309 conicto
268 683 268 1320 conicto
268 1979 621 2365 conicto
974 2752 1572 2752 conicto
2109 2752 2421 2410 conicto
2734 2068 2734 1480 conicto
2297 1600 moveto
2292 1950 2096 2159 conicto
1900 2368 1577 2368 conicto
1212 2368 992 2166 conicto
772 1964 739 1597 conicto
2297 1600 lineto
end_ol grestore 
gsave 10.791519 6.732735 translate 0.035278 -0.035278 scale
start_ol
end_ol grestore 
gsave 10.993826 6.732735 translate 0.035278 -0.035278 scale
start_ol
1667 1344 moveto
1137 1344 933 1225 conicto
729 1106 729 818 conicto
729 589 882 454 conicto
1035 320 1299 320 conicto
1663 320 1882 572 conicto
2102 825 2102 1244 conicto
2102 1344 lineto
1667 1344 lineto
2539 1513 moveto
2539 0 lineto
2102 0 lineto
2102 384 lineto
1952 154 1729 45 conicto
1506 -64 1183 -64 conicto
774 -64 533 162 conicto
292 389 292 769 conicto
292 1213 592 1438 conicto
893 1664 1489 1664 conicto
2102 1664 lineto
2102 1712 lineto
2102 2025 1903 2196 conicto
1705 2368 1347 2368 conicto
1119 2368 903 2320 conicto
687 2272 487 2176 conicto
487 2560 lineto
727 2656 952 2704 conicto
1178 2752 1392 2752 conicto
1969 2752 2254 2444 conicto
2539 2137 2539 1513 conicto
1741 3904 moveto
2214 3904 lineto
1439 3008 lineto
1076 3008 lineto
1741 3904 lineto
end_ol grestore 
gsave 11.385955 6.732735 translate 0.035278 -0.035278 scale
start_ol
413 1040 moveto
413 2688 lineto
850 2688 lineto
850 1057 lineto
850 689 997 504 conicto
1145 320 1439 320 conicto
1793 320 1998 541 conicto
2204 763 2204 1145 conicto
2204 2688 lineto
2641 2688 lineto
2641 0 lineto
2204 0 lineto
2204 384 lineto
2045 157 1834 46 conicto
1624 -64 1347 -64 conicto
888 -64 650 217 conicto
413 499 413 1040 conicto
1513 2752 moveto
1513 2752 lineto
end_ol grestore 
gsave 11.790569 6.732735 translate 0.035278 -0.035278 scale
start_ol
2209 2304 moveto
2209 3712 lineto
2646 3712 lineto
2646 0 lineto
2209 0 lineto
2209 384 lineto
2071 157 1861 46 conicto
1651 -64 1356 -64 conicto
874 -64 571 324 conicto
268 712 268 1344 conicto
268 1976 571 2364 conicto
874 2752 1356 2752 conicto
1651 2752 1861 2641 conicto
2071 2531 2209 2304 conicto
720 1344 moveto
720 865 918 592 conicto
1117 320 1463 320 conicto
1810 320 2009 592 conicto
2209 865 2209 1344 conicto
2209 1823 2009 2095 conicto
1810 2368 1463 2368 conicto
1117 2368 918 2095 conicto
720 1823 720 1344 conicto
end_ol grestore 
gsave 12.197689 6.732735 translate 0.035278 -0.035278 scale
start_ol
458 2688 moveto
895 2688 lineto
895 0 lineto
458 0 lineto
458 2688 lineto
458 3712 moveto
895 3712 lineto
895 3136 lineto
458 3136 lineto
458 3712 lineto
end_ol grestore 
gsave 12.375017 6.732735 translate 0.035278 -0.035278 scale
start_ol
1489 2368 moveto
1138 2368 933 2094 conicto
729 1820 729 1344 conicto
729 868 932 594 conicto
1135 320 1489 320 conicto
1838 320 2042 595 conicto
2247 870 2247 1344 conicto
2247 1816 2042 2092 conicto
1838 2368 1489 2368 conicto
1489 2752 moveto
2059 2752 2384 2378 conicto
2710 2005 2710 1344 conicto
2710 685 2384 310 conicto
2059 -64 1489 -64 conicto
917 -64 592 310 conicto
268 685 268 1344 conicto
268 2005 592 2378 conicto
917 2752 1489 2752 conicto
end_ol grestore 
0.100000 slw
[] 0 sd
0 slj
1.000000 1.000000 1.000000 srgb
n 7.280000 8.086525 m 13.257500 8.086525 l 13.257500 10.786525 l 7.280000 10.786525 l ef
0.000000 0.000000 0.000000 srgb
n 7.280000 8.086525 m 13.257500 8.086525 l 13.257500 10.786525 l 7.280000 10.786525 l cp s
gsave 7.830000 9.230588 translate 0.035278 -0.035278 scale
start_ol
603 384 moveto
1387 384 lineto
1387 3136 lineto
534 2944 lineto
534 3328 lineto
1382 3520 lineto
1862 3520 lineto
1862 384 lineto
2646 384 lineto
2646 0 lineto
603 0 lineto
603 384 lineto
end_ol grestore 
gsave 8.237119 9.230588 translate 0.035278 -0.035278 scale
start_ol
390 3712 moveto
770 3712 lineto
1126 3149 1303 2609 conicto
1480 2070 1480 1538 conicto
1480 1004 1303 462 conicto
1126 -79 770 -640 conicto
390 -640 lineto
706 -94 861 446 conicto
1017 987 1017 1538 conicto
1017 2090 861 2626 conicto
706 3163 390 3712 conicto
end_ol grestore 
gsave 8.486886 9.230588 translate 0.035278 -0.035278 scale
start_ol
end_ol grestore 
gsave 8.689193 9.230588 translate 0.035278 -0.035278 scale
start_ol
477 3520 moveto
957 3520 lineto
957 237 lineto
957 -392 713 -676 conicto
470 -960 -69 -960 conicto
-252 -960 lineto
-252 -576 lineto
-102 -576 lineto
216 -576 346 -398 conicto
477 -221 477 237 conicto
477 3520 lineto
end_ol grestore 
gsave 8.879015 9.230588 translate 0.035278 -0.035278 scale
start_ol
1667 1344 moveto
1137 1344 933 1225 conicto
729 1106 729 818 conicto
729 589 882 454 conicto
1035 320 1299 320 conicto
1663 320 1882 572 conicto
2102 825 2102 1244 conicto
2102 1344 lineto
1667 1344 lineto
2539 1513 moveto
2539 0 lineto
2102 0 lineto
2102 384 lineto
1952 154 1729 45 conicto
1506 -64 1183 -64 conicto
774 -64 533 162 conicto
292 389 292 769 conicto
292 1213 592 1438 conicto
893 1664 1489 1664 conicto
2102 1664 lineto
2102 1712 lineto
2102 2025 1903 2196 conicto
1705 2368 1347 2368 conicto
1119 2368 903 2320 conicto
687 2272 487 2176 conicto
487 2560 lineto
727 2656 952 2704 conicto
1178 2752 1392 2752 conicto
1969 2752 2254 2444 conicto
2539 2137 2539 1513 conicto
end_ol grestore 
gsave 9.271144 9.230588 translate 0.035278 -0.035278 scale
start_ol
2670 1646 moveto
2670 0 lineto
2233 0 lineto
2233 1632 lineto
2233 2001 2085 2184 conicto
1938 2368 1644 2368 conicto
1290 2368 1085 2146 conicto
881 1925 881 1542 conicto
881 0 lineto
442 0 lineto
442 2688 lineto
881 2688 lineto
881 2304 lineto
1038 2529 1250 2640 conicto
1463 2752 1741 2752 conicto
2200 2752 2435 2471 conicto
2670 2191 2670 1646 conicto
end_ol grestore 
gsave 9.675758 9.230588 translate 0.035278 -0.035278 scale
start_ol
2734 1480 moveto
2734 1280 lineto
724 1280 lineto
753 811 996 565 conicto
1240 320 1674 320 conicto
1926 320 2162 384 conicto
2399 448 2632 576 conicto
2632 192 lineto
2397 67 2150 1 conicto
1903 -64 1648 -64 conicto
1012 -64 640 309 conicto
268 683 268 1320 conicto
268 1979 621 2365 conicto
974 2752 1572 2752 conicto
2109 2752 2421 2410 conicto
2734 2068 2734 1480 conicto
2297 1600 moveto
2292 1950 2096 2159 conicto
1900 2368 1577 2368 conicto
1212 2368 992 2166 conicto
772 1964 739 1597 conicto
2297 1600 lineto
end_ol grestore 
gsave 10.070384 9.230588 translate 0.035278 -0.035278 scale
start_ol
458 3712 moveto
895 3712 lineto
895 0 lineto
458 0 lineto
458 3712 lineto
end_ol grestore 
gsave 10.247713 9.230588 translate 0.035278 -0.035278 scale
start_ol
1667 1344 moveto
1137 1344 933 1225 conicto
729 1106 729 818 conicto
729 589 882 454 conicto
1035 320 1299 320 conicto
1663 320 1882 572 conicto
2102 825 2102 1244 conicto
2102 1344 lineto
1667 1344 lineto
2539 1513 moveto
2539 0 lineto
2102 0 lineto
2102 384 lineto
1952 154 1729 45 conicto
1506 -64 1183 -64 conicto
774 -64 533 162 conicto
292 389 292 769 conicto
292 1213 592 1438 conicto
893 1664 1489 1664 conicto
2102 1664 lineto
2102 1712 lineto
2102 2025 1903 2196 conicto
1705 2368 1347 2368 conicto
1119 2368 903 2320 conicto
687 2272 487 2176 conicto
487 2560 lineto
727 2656 952 2704 conicto
1178 2752 1392 2752 conicto
1969 2752 2254 2444 conicto
2539 2137 2539 1513 conicto
end_ol grestore 
gsave 10.639842 9.230588 translate 0.035278 -0.035278 scale
start_ol
2529 2204 moveto
2693 2485 2921 2618 conicto
3149 2752 3458 2752 conicto
3874 2752 4099 2464 conicto
4325 2177 4325 1646 conicto
4325 0 lineto
3886 0 lineto
3886 1632 lineto
3886 2006 3750 2187 conicto
3615 2368 3337 2368 conicto
2997 2368 2800 2146 conicto
2603 1925 2603 1542 conicto
2603 0 lineto
2164 0 lineto
2164 1632 lineto
2164 2008 2028 2188 conicto
1893 2368 1610 2368 conicto
1275 2368 1078 2145 conicto
881 1922 881 1542 conicto
881 0 lineto
442 0 lineto
442 2688 lineto
881 2688 lineto
881 2304 lineto
1031 2534 1240 2643 conicto
1449 2752 1736 2752 conicto
2026 2752 2229 2611 conicto
2432 2471 2529 2204 conicto
end_ol grestore 
gsave 11.261753 9.230588 translate 0.035278 -0.035278 scale
start_ol
2734 1480 moveto
2734 1280 lineto
724 1280 lineto
753 811 996 565 conicto
1240 320 1674 320 conicto
1926 320 2162 384 conicto
2399 448 2632 576 conicto
2632 192 lineto
2397 67 2150 1 conicto
1903 -64 1648 -64 conicto
1012 -64 640 309 conicto
268 683 268 1320 conicto
268 1979 621 2365 conicto
974 2752 1572 2752 conicto
2109 2752 2421 2410 conicto
2734 2068 2734 1480 conicto
2297 1600 moveto
2292 1950 2096 2159 conicto
1900 2368 1577 2368 conicto
1212 2368 992 2166 conicto
772 1964 739 1597 conicto
2297 1600 lineto
end_ol grestore 
gsave 11.656379 9.230588 translate 0.035278 -0.035278 scale
start_ol
2670 1646 moveto
2670 0 lineto
2233 0 lineto
2233 1632 lineto
2233 2001 2085 2184 conicto
1938 2368 1644 2368 conicto
1290 2368 1085 2146 conicto
881 1925 881 1542 conicto
881 0 lineto
442 0 lineto
442 2688 lineto
881 2688 lineto
881 2304 lineto
1038 2529 1250 2640 conicto
1463 2752 1741 2752 conicto
2200 2752 2435 2471 conicto
2670 2191 2670 1646 conicto
end_ol grestore 
gsave 12.060993 9.230588 translate 0.035278 -0.035278 scale
start_ol
891 3456 moveto
891 2688 lineto
1791 2688 lineto
1791 2368 lineto
891 2368 lineto
891 902 lineto
891 572 980 478 conicto
1069 384 1342 384 conicto
1791 384 lineto
1791 0 lineto
1342 0 lineto
836 0 643 194 conicto
451 389 451 902 conicto
451 2368 lineto
131 2368 lineto
131 2688 lineto
451 2688 lineto
451 3456 lineto
891 3456 lineto
end_ol grestore 
gsave 12.310760 9.230588 translate 0.035278 -0.035278 scale
start_ol
1489 2368 moveto
1138 2368 933 2094 conicto
729 1820 729 1344 conicto
729 868 932 594 conicto
1135 320 1489 320 conicto
1838 320 2042 595 conicto
2247 870 2247 1344 conicto
2247 1816 2042 2092 conicto
1838 2368 1489 2368 conicto
1489 2752 moveto
2059 2752 2384 2378 conicto
2710 2005 2710 1344 conicto
2710 685 2384 310 conicto
2059 -64 1489 -64 conicto
917 -64 592 310 conicto
268 685 268 1344 conicto
268 2005 592 2378 conicto
917 2752 1489 2752 conicto
end_ol grestore 
gsave 9.025000 10.030588 translate 0.035278 -0.035278 scale
start_ol
2209 2304 moveto
2209 3712 lineto
2646 3712 lineto
2646 0 lineto
2209 0 lineto
2209 384 lineto
2071 157 1861 46 conicto
1651 -64 1356 -64 conicto
874 -64 571 324 conicto
268 712 268 1344 conicto
268 1976 571 2364 conicto
874 2752 1356 2752 conicto
1651 2752 1861 2641 conicto
2071 2531 2209 2304 conicto
720 1344 moveto
720 865 918 592 conicto
1117 320 1463 320 conicto
1810 320 2009 592 conicto
2209 865 2209 1344 conicto
2209 1823 2009 2095 conicto
1810 2368 1463 2368 conicto
1117 2368 918 2095 conicto
720 1823 720 1344 conicto
end_ol grestore 
gsave 9.432119 10.030588 translate 0.035278 -0.035278 scale
start_ol
1489 2368 moveto
1138 2368 933 2094 conicto
729 1820 729 1344 conicto
729 868 932 594 conicto
1135 320 1489 320 conicto
1838 320 2042 595 conicto
2247 870 2247 1344 conicto
2247 1816 2042 2092 conicto
1838 2368 1489 2368 conicto
1489 2752 moveto
2059 2752 2384 2378 conicto
2710 2005 2710 1344 conicto
2710 685 2384 310 conicto
2059 -64 1489 -64 conicto
917 -64 592 310 conicto
268 685 268 1344 conicto
268 2005 592 2378 conicto
917 2752 1489 2752 conicto
end_ol grestore 
gsave 9.824248 10.030588 translate 0.035278 -0.035278 scale
start_ol
end_ol grestore 
gsave 10.026555 10.030588 translate 0.035278 -0.035278 scale
start_ol
2154 2560 moveto
2154 2176 lineto
1969 2272 1769 2320 conicto
1570 2368 1356 2368 conicto
1030 2368 867 2269 conicto
705 2170 705 1972 conicto
705 1821 821 1735 conicto
938 1649 1290 1571 conicto
1439 1538 lineto
1905 1438 2101 1255 conicto
2297 1072 2297 744 conicto
2297 371 2003 153 conicto
1710 -64 1197 -64 conicto
984 -64 752 -16 conicto
521 32 264 128 conicto
264 576 lineto
506 448 741 384 conicto
976 320 1207 320 conicto
1516 320 1682 425 conicto
1848 531 1848 722 conicto
1848 900 1728 994 conicto
1608 1089 1202 1177 conicto
1050 1212 lineto
644 1298 463 1476 conicto
283 1654 283 1964 conicto
283 2341 549 2546 conicto
815 2752 1304 2752 conicto
1546 2752 1760 2704 conicto
1974 2656 2154 2560 conicto
end_ol grestore 
gsave 10.358740 10.030588 translate 0.035278 -0.035278 scale
start_ol
458 2688 moveto
895 2688 lineto
895 0 lineto
458 0 lineto
458 2688 lineto
458 3712 moveto
895 3712 lineto
895 3136 lineto
458 3136 lineto
458 3712 lineto
end_ol grestore 
gsave 10.536068 10.030588 translate 0.035278 -0.035278 scale
start_ol
2670 1646 moveto
2670 0 lineto
2233 0 lineto
2233 1632 lineto
2233 2001 2085 2184 conicto
1938 2368 1644 2368 conicto
1290 2368 1085 2146 conicto
881 1925 881 1542 conicto
881 0 lineto
442 0 lineto
442 2688 lineto
881 2688 lineto
881 2304 lineto
1038 2529 1250 2640 conicto
1463 2752 1741 2752 conicto
2200 2752 2435 2471 conicto
2670 2191 2670 1646 conicto
end_ol grestore 
gsave 10.940683 10.030588 translate 0.035278 -0.035278 scale
start_ol
1667 1344 moveto
1137 1344 933 1225 conicto
729 1106 729 818 conicto
729 589 882 454 conicto
1035 320 1299 320 conicto
1663 320 1882 572 conicto
2102 825 2102 1244 conicto
2102 1344 lineto
1667 1344 lineto
2539 1513 moveto
2539 0 lineto
2102 0 lineto
2102 384 lineto
1952 154 1729 45 conicto
1506 -64 1183 -64 conicto
774 -64 533 162 conicto
292 389 292 769 conicto
292 1213 592 1438 conicto
893 1664 1489 1664 conicto
2102 1664 lineto
2102 1712 lineto
2102 2025 1903 2196 conicto
1705 2368 1347 2368 conicto
1119 2368 903 2320 conicto
687 2272 487 2176 conicto
487 2560 lineto
727 2656 952 2704 conicto
1178 2752 1392 2752 conicto
1969 2752 2254 2444 conicto
2539 2137 2539 1513 conicto
end_ol grestore 
gsave 11.332812 10.030588 translate 0.035278 -0.035278 scale
start_ol
458 3712 moveto
895 3712 lineto
895 0 lineto
458 0 lineto
458 3712 lineto
end_ol grestore 
0.100000 slw
[] 0 sd
0 slj
1.000000 1.000000 1.000000 srgb
n 7.000000 12.622718 m 13.537500 12.622718 l 13.537500 16.122718 l 7.000000 16.122718 l ef
0.000000 0.000000 0.000000 srgb
n 7.000000 12.622718 m 13.537500 12.622718 l 13.537500 16.122718 l 7.000000 16.122718 l cp s
gsave 7.550000 13.766780 translate 0.035278 -0.035278 scale
start_ol
933 384 moveto
2608 384 lineto
2608 0 lineto
356 0 lineto
356 384 lineto
629 668 1100 1146 conicto
1572 1625 1694 1763 conicto
1924 2023 2015 2203 conicto
2107 2384 2107 2558 conicto
2107 2842 1908 3021 conicto
1710 3200 1392 3200 conicto
1166 3200 915 3104 conicto
665 3009 380 2816 conicto
380 3328 lineto
670 3455 921 3519 conicto
1173 3584 1382 3584 conicto
1933 3584 2261 3309 conicto
2589 3034 2589 2574 conicto
2589 2356 2507 2160 conicto
2425 1965 2209 1700 conicto
2149 1631 1831 1302 conicto
1513 974 933 384 conicto
end_ol grestore 
gsave 7.957119 13.766780 translate 0.035278 -0.035278 scale
start_ol
390 3712 moveto
770 3712 lineto
1126 3149 1303 2609 conicto
1480 2070 1480 1538 conicto
1480 1004 1303 462 conicto
1126 -79 770 -640 conicto
390 -640 lineto
706 -94 861 446 conicto
1017 987 1017 1538 conicto
1017 2090 861 2626 conicto
706 3163 390 3712 conicto
end_ol grestore 
gsave 8.206886 13.766780 translate 0.035278 -0.035278 scale
start_ol
end_ol grestore 
gsave 8.409193 13.766780 translate 0.035278 -0.035278 scale
start_ol
-14 3520 moveto
2985 3520 lineto
2985 3136 lineto
1727 3136 lineto
1727 0 lineto
1245 0 lineto
1245 3136 lineto
-14 3136 lineto
-14 3520 lineto
end_ol grestore 
gsave 8.706411 13.766780 translate 0.035278 -0.035278 scale
start_ol
2000 2304 moveto
1926 2337 1839 2352 conicto
1753 2368 1648 2368 conicto
1278 2368 1079 2127 conicto
881 1887 881 1437 conicto
881 0 lineto
442 0 lineto
442 2688 lineto
881 2688 lineto
881 2304 lineto
1019 2531 1240 2641 conicto
1461 2752 1777 2752 conicto
1822 2752 1876 2752 conicto
1931 2752 1998 2752 conicto
2000 2304 lineto
end_ol grestore 
gsave 8.968663 13.766780 translate 0.035278 -0.035278 scale
start_ol
1667 1344 moveto
1137 1344 933 1225 conicto
729 1106 729 818 conicto
729 589 882 454 conicto
1035 320 1299 320 conicto
1663 320 1882 572 conicto
2102 825 2102 1244 conicto
2102 1344 lineto
1667 1344 lineto
2539 1513 moveto
2539 0 lineto
2102 0 lineto
2102 384 lineto
1952 154 1729 45 conicto
1506 -64 1183 -64 conicto
774 -64 533 162 conicto
292 389 292 769 conicto
292 1213 592 1438 conicto
893 1664 1489 1664 conicto
2102 1664 lineto
2102 1712 lineto
2102 2025 1903 2196 conicto
1705 2368 1347 2368 conicto
1119 2368 903 2320 conicto
687 2272 487 2176 conicto
487 2560 lineto
727 2656 952 2704 conicto
1178 2752 1392 2752 conicto
1969 2752 2254 2444 conicto
2539 2137 2539 1513 conicto
end_ol grestore 
gsave 9.360792 13.766780 translate 0.035278 -0.035278 scale
start_ol
2670 1646 moveto
2670 0 lineto
2233 0 lineto
2233 1632 lineto
2233 2001 2085 2184 conicto
1938 2368 1644 2368 conicto
1290 2368 1085 2146 conicto
881 1925 881 1542 conicto
881 0 lineto
442 0 lineto
442 2688 lineto
881 2688 lineto
881 2304 lineto
1038 2529 1250 2640 conicto
1463 2752 1741 2752 conicto
2200 2752 2435 2471 conicto
2670 2191 2670 1646 conicto
end_ol grestore 
gsave 9.765406 13.766780 translate 0.035278 -0.035278 scale
start_ol
2154 2560 moveto
2154 2176 lineto
1969 2272 1769 2320 conicto
1570 2368 1356 2368 conicto
1030 2368 867 2269 conicto
705 2170 705 1972 conicto
705 1821 821 1735 conicto
938 1649 1290 1571 conicto
1439 1538 lineto
1905 1438 2101 1255 conicto
2297 1072 2297 744 conicto
2297 371 2003 153 conicto
1710 -64 1197 -64 conicto
984 -64 752 -16 conicto
521 32 264 128 conicto
264 576 lineto
506 448 741 384 conicto
976 320 1207 320 conicto
1516 320 1682 425 conicto
1848 531 1848 722 conicto
1848 900 1728 994 conicto
1608 1089 1202 1177 conicto
1050 1212 lineto
644 1298 463 1476 conicto
283 1654 283 1964 conicto
283 2341 549 2546 conicto
815 2752 1304 2752 conicto
1546 2752 1760 2704 conicto
1974 2656 2154 2560 conicto
end_ol grestore 
gsave 10.097590 13.766780 translate 0.035278 -0.035278 scale
start_ol
1805 3712 moveto
1805 3328 lineto
1387 3328 lineto
1152 3328 1060 3237 conicto
969 3147 969 2912 conicto
969 2688 lineto
1689 2688 lineto
1689 2368 lineto
969 2368 lineto
969 0 lineto
530 0 lineto
530 2368 lineto
112 2368 lineto
112 2688 lineto
530 2688 lineto
530 2864 lineto
530 3307 736 3509 conicto
943 3712 1392 3712 conicto
1805 3712 lineto
end_ol grestore 
gsave 10.322379 13.766780 translate 0.035278 -0.035278 scale
start_ol
1489 2368 moveto
1138 2368 933 2094 conicto
729 1820 729 1344 conicto
729 868 932 594 conicto
1135 320 1489 320 conicto
1838 320 2042 595 conicto
2247 870 2247 1344 conicto
2247 1816 2042 2092 conicto
1838 2368 1489 2368 conicto
1489 2752 moveto
2059 2752 2384 2378 conicto
2710 2005 2710 1344 conicto
2710 685 2384 310 conicto
2059 -64 1489 -64 conicto
917 -64 592 310 conicto
268 685 268 1344 conicto
268 2005 592 2378 conicto
917 2752 1489 2752 conicto
end_ol grestore 
gsave 10.714508 13.766780 translate 0.035278 -0.035278 scale
start_ol
2000 2304 moveto
1926 2337 1839 2352 conicto
1753 2368 1648 2368 conicto
1278 2368 1079 2127 conicto
881 1887 881 1437 conicto
881 0 lineto
442 0 lineto
442 2688 lineto
881 2688 lineto
881 2304 lineto
1019 2531 1240 2641 conicto
1461 2752 1777 2752 conicto
1822 2752 1876 2752 conicto
1931 2752 1998 2752 conicto
2000 2304 lineto
end_ol grestore 
gsave 10.966771 13.766780 translate 0.035278 -0.035278 scale
start_ol
2529 2204 moveto
2693 2485 2921 2618 conicto
3149 2752 3458 2752 conicto
3874 2752 4099 2464 conicto
4325 2177 4325 1646 conicto
4325 0 lineto
3886 0 lineto
3886 1632 lineto
3886 2006 3750 2187 conicto
3615 2368 3337 2368 conicto
2997 2368 2800 2146 conicto
2603 1925 2603 1542 conicto
2603 0 lineto
2164 0 lineto
2164 1632 lineto
2164 2008 2028 2188 conicto
1893 2368 1610 2368 conicto
1275 2368 1078 2145 conicto
881 1922 881 1542 conicto
881 0 lineto
442 0 lineto
442 2688 lineto
881 2688 lineto
881 2304 lineto
1031 2534 1240 2643 conicto
1449 2752 1736 2752 conicto
2026 2752 2229 2611 conicto
2432 2471 2529 2204 conicto
end_ol grestore 
gsave 11.588683 13.766780 translate 0.035278 -0.035278 scale
start_ol
1667 1344 moveto
1137 1344 933 1225 conicto
729 1106 729 818 conicto
729 589 882 454 conicto
1035 320 1299 320 conicto
1663 320 1882 572 conicto
2102 825 2102 1244 conicto
2102 1344 lineto
1667 1344 lineto
2539 1513 moveto
2539 0 lineto
2102 0 lineto
2102 384 lineto
1952 154 1729 45 conicto
1506 -64 1183 -64 conicto
774 -64 533 162 conicto
292 389 292 769 conicto
292 1213 592 1438 conicto
893 1664 1489 1664 conicto
2102 1664 lineto
2102 1712 lineto
2102 2025 1903 2196 conicto
1705 2368 1347 2368 conicto
1119 2368 903 2320 conicto
687 2272 487 2176 conicto
487 2560 lineto
727 2656 952 2704 conicto
1178 2752 1392 2752 conicto
1969 2752 2254 2444 conicto
2539 2137 2539 1513 conicto
end_ol grestore 
gsave 11.980812 13.766780 translate 0.035278 -0.035278 scale
start_ol
2209 2304 moveto
2209 3712 lineto
2646 3712 lineto
2646 0 lineto
2209 0 lineto
2209 384 lineto
2071 157 1861 46 conicto
1651 -64 1356 -64 conicto
874 -64 571 324 conicto
268 712 268 1344 conicto
268 1976 571 2364 conicto
874 2752 1356 2752 conicto
1651 2752 1861 2641 conicto
2071 2531 2209 2304 conicto
720 1344 moveto
720 865 918 592 conicto
1117 320 1463 320 conicto
1810 320 2009 592 conicto
2209 865 2209 1344 conicto
2209 1823 2009 2095 conicto
1810 2368 1463 2368 conicto
1117 2368 918 2095 conicto
720 1823 720 1344 conicto
end_ol grestore 
gsave 12.387931 13.766780 translate 0.035278 -0.035278 scale
start_ol
1667 1344 moveto
1137 1344 933 1225 conicto
729 1106 729 818 conicto
729 589 882 454 conicto
1035 320 1299 320 conicto
1663 320 1882 572 conicto
2102 825 2102 1244 conicto
2102 1344 lineto
1667 1344 lineto
2539 1513 moveto
2539 0 lineto
2102 0 lineto
2102 384 lineto
1952 154 1729 45 conicto
1506 -64 1183 -64 conicto
774 -64 533 162 conicto
292 389 292 769 conicto
292 1213 592 1438 conicto
893 1664 1489 1664 conicto
2102 1664 lineto
2102 1712 lineto
2102 2025 1903 2196 conicto
1705 2368 1347 2368 conicto
1119 2368 903 2320 conicto
687 2272 487 2176 conicto
487 2560 lineto
727 2656 952 2704 conicto
1178 2752 1392 2752 conicto
1969 2752 2254 2444 conicto
2539 2137 2539 1513 conicto
end_ol grestore 
gsave 12.780060 13.766780 translate 0.035278 -0.035278 scale
start_ol
end_ol grestore 
gsave 8.990000 14.566780 translate 0.035278 -0.035278 scale
start_ol
2209 2304 moveto
2209 3712 lineto
2646 3712 lineto
2646 0 lineto
2209 0 lineto
2209 384 lineto
2071 157 1861 46 conicto
1651 -64 1356 -64 conicto
874 -64 571 324 conicto
268 712 268 1344 conicto
268 1976 571 2364 conicto
874 2752 1356 2752 conicto
1651 2752 1861 2641 conicto
2071 2531 2209 2304 conicto
720 1344 moveto
720 865 918 592 conicto
1117 320 1463 320 conicto
1810 320 2009 592 conicto
2209 865 2209 1344 conicto
2209 1823 2009 2095 conicto
1810 2368 1463 2368 conicto
1117 2368 918 2095 conicto
720 1823 720 1344 conicto
end_ol grestore 
gsave 9.397119 14.566780 translate 0.035278 -0.035278 scale
start_ol
458 2688 moveto
895 2688 lineto
895 0 lineto
458 0 lineto
458 2688 lineto
458 3712 moveto
895 3712 lineto
895 3136 lineto
458 3136 lineto
458 3712 lineto
end_ol grestore 
gsave 9.574448 14.566780 translate 0.035278 -0.035278 scale
start_ol
2154 2560 moveto
2154 2176 lineto
1969 2272 1769 2320 conicto
1570 2368 1356 2368 conicto
1030 2368 867 2269 conicto
705 2170 705 1972 conicto
705 1821 821 1735 conicto
938 1649 1290 1571 conicto
1439 1538 lineto
1905 1438 2101 1255 conicto
2297 1072 2297 744 conicto
2297 371 2003 153 conicto
1710 -64 1197 -64 conicto
984 -64 752 -16 conicto
521 32 264 128 conicto
264 576 lineto
506 448 741 384 conicto
976 320 1207 320 conicto
1516 320 1682 425 conicto
1848 531 1848 722 conicto
1848 900 1728 994 conicto
1608 1089 1202 1177 conicto
1050 1212 lineto
644 1298 463 1476 conicto
283 1654 283 1964 conicto
283 2341 549 2546 conicto
815 2752 1304 2752 conicto
1546 2752 1760 2704 conicto
1974 2656 2154 2560 conicto
end_ol grestore 
gsave 9.906632 14.566780 translate 0.035278 -0.035278 scale
start_ol
2373 2560 moveto
2373 2176 lineto
2188 2272 2001 2320 conicto
1815 2368 1625 2368 conicto
1199 2368 964 2099 conicto
729 1830 729 1344 conicto
729 858 964 589 conicto
1199 320 1625 320 conicto
1815 320 2001 368 conicto
2188 416 2373 512 conicto
2373 128 lineto
2190 32 1994 -16 conicto
1798 -64 1577 -64 conicto
976 -64 622 316 conicto
268 697 268 1344 conicto
268 2000 625 2376 conicto
983 2752 1606 2752 conicto
1808 2752 2000 2704 conicto
2192 2656 2373 2560 conicto
end_ol grestore 
gsave 10.258801 14.566780 translate 0.035278 -0.035278 scale
start_ol
2000 2304 moveto
1926 2337 1839 2352 conicto
1753 2368 1648 2368 conicto
1278 2368 1079 2127 conicto
881 1887 881 1437 conicto
881 0 lineto
442 0 lineto
442 2688 lineto
881 2688 lineto
881 2304 lineto
1019 2531 1240 2641 conicto
1461 2752 1777 2752 conicto
1822 2752 1876 2752 conicto
1931 2752 1998 2752 conicto
2000 2304 lineto
end_ol grestore 
gsave 10.508568 14.566780 translate 0.035278 -0.035278 scale
start_ol
2734 1480 moveto
2734 1280 lineto
724 1280 lineto
753 811 996 565 conicto
1240 320 1674 320 conicto
1926 320 2162 384 conicto
2399 448 2632 576 conicto
2632 192 lineto
2397 67 2150 1 conicto
1903 -64 1648 -64 conicto
1012 -64 640 309 conicto
268 683 268 1320 conicto
268 1979 621 2365 conicto
974 2752 1572 2752 conicto
2109 2752 2421 2410 conicto
2734 2068 2734 1480 conicto
2297 1600 moveto
2292 1950 2096 2159 conicto
1900 2368 1577 2368 conicto
1212 2368 992 2166 conicto
772 1964 739 1597 conicto
2297 1600 lineto
end_ol grestore 
gsave 10.903194 14.566780 translate 0.035278 -0.035278 scale
start_ol
891 3456 moveto
891 2688 lineto
1791 2688 lineto
1791 2368 lineto
891 2368 lineto
891 902 lineto
891 572 980 478 conicto
1069 384 1342 384 conicto
1791 384 lineto
1791 0 lineto
1342 0 lineto
836 0 643 194 conicto
451 389 451 902 conicto
451 2368 lineto
131 2368 lineto
131 2688 lineto
451 2688 lineto
451 3456 lineto
891 3456 lineto
end_ol grestore 
gsave 11.152960 14.566780 translate 0.035278 -0.035278 scale
start_ol
1667 1344 moveto
1137 1344 933 1225 conicto
729 1106 729 818 conicto
729 589 882 454 conicto
1035 320 1299 320 conicto
1663 320 1882 572 conicto
2102 825 2102 1244 conicto
2102 1344 lineto
1667 1344 lineto
2539 1513 moveto
2539 0 lineto
2102 0 lineto
2102 384 lineto
1952 154 1729 45 conicto
1506 -64 1183 -64 conicto
774 -64 533 162 conicto
292 389 292 769 conicto
292 1213 592 1438 conicto
893 1664 1489 1664 conicto
2102 1664 lineto
2102 1712 lineto
2102 2025 1903 2196 conicto
1705 2368 1347 2368 conicto
1119 2368 903 2320 conicto
687 2272 487 2176 conicto
487 2560 lineto
727 2656 952 2704 conicto
1178 2752 1392 2752 conicto
1969 2752 2254 2444 conicto
2539 2137 2539 1513 conicto
end_ol grestore 
gsave 8.645938 15.366780 translate 0.035278 -0.035278 scale
start_ol
2209 2304 moveto
2209 3712 lineto
2646 3712 lineto
2646 0 lineto
2209 0 lineto
2209 384 lineto
2071 157 1861 46 conicto
1651 -64 1356 -64 conicto
874 -64 571 324 conicto
268 712 268 1344 conicto
268 1976 571 2364 conicto
874 2752 1356 2752 conicto
1651 2752 1861 2641 conicto
2071 2531 2209 2304 conicto
720 1344 moveto
720 865 918 592 conicto
1117 320 1463 320 conicto
1810 320 2009 592 conicto
2209 865 2209 1344 conicto
2209 1823 2009 2095 conicto
1810 2368 1463 2368 conicto
1117 2368 918 2095 conicto
720 1823 720 1344 conicto
end_ol grestore 
gsave 9.053057 15.366780 translate 0.035278 -0.035278 scale
start_ol
2734 1480 moveto
2734 1280 lineto
724 1280 lineto
753 811 996 565 conicto
1240 320 1674 320 conicto
1926 320 2162 384 conicto
2399 448 2632 576 conicto
2632 192 lineto
2397 67 2150 1 conicto
1903 -64 1648 -64 conicto
1012 -64 640 309 conicto
268 683 268 1320 conicto
268 1979 621 2365 conicto
974 2752 1572 2752 conicto
2109 2752 2421 2410 conicto
2734 2068 2734 1480 conicto
2297 1600 moveto
2292 1950 2096 2159 conicto
1900 2368 1577 2368 conicto
1212 2368 992 2166 conicto
772 1964 739 1597 conicto
2297 1600 lineto
end_ol grestore 
gsave 9.447683 15.366780 translate 0.035278 -0.035278 scale
start_ol
end_ol grestore 
gsave 9.649990 15.366780 translate 0.035278 -0.035278 scale
start_ol
477 3520 moveto
2515 3520 lineto
2515 3136 lineto
957 3136 lineto
957 2112 lineto
2363 2112 lineto
2363 1728 lineto
957 1728 lineto
957 0 lineto
477 0 lineto
477 3520 lineto
end_ol grestore 
gsave 9.994668 15.366780 translate 0.035278 -0.035278 scale
start_ol
1489 2368 moveto
1138 2368 933 2094 conicto
729 1820 729 1344 conicto
729 868 932 594 conicto
1135 320 1489 320 conicto
1838 320 2042 595 conicto
2247 870 2247 1344 conicto
2247 1816 2042 2092 conicto
1838 2368 1489 2368 conicto
1489 2752 moveto
2059 2752 2384 2378 conicto
2710 2005 2710 1344 conicto
2710 685 2384 310 conicto
2059 -64 1489 -64 conicto
917 -64 592 310 conicto
268 685 268 1344 conicto
268 2005 592 2378 conicto
917 2752 1489 2752 conicto
end_ol grestore 
gsave 10.386797 15.366780 translate 0.035278 -0.035278 scale
start_ol
413 1040 moveto
413 2688 lineto
850 2688 lineto
850 1057 lineto
850 689 997 504 conicto
1145 320 1439 320 conicto
1793 320 1998 541 conicto
2204 763 2204 1145 conicto
2204 2688 lineto
2641 2688 lineto
2641 0 lineto
2204 0 lineto
2204 384 lineto
2045 157 1834 46 conicto
1624 -64 1347 -64 conicto
888 -64 650 217 conicto
413 499 413 1040 conicto
1513 2752 moveto
1513 2752 lineto
end_ol grestore 
gsave 10.791411 15.366780 translate 0.035278 -0.035278 scale
start_ol
2000 2304 moveto
1926 2337 1839 2352 conicto
1753 2368 1648 2368 conicto
1278 2368 1079 2127 conicto
881 1887 881 1437 conicto
881 0 lineto
442 0 lineto
442 2688 lineto
881 2688 lineto
881 2304 lineto
1019 2531 1240 2641 conicto
1461 2752 1777 2752 conicto
1822 2752 1876 2752 conicto
1931 2752 1998 2752 conicto
2000 2304 lineto
end_ol grestore 
gsave 11.053662 15.366780 translate 0.035278 -0.035278 scale
start_ol
458 2688 moveto
895 2688 lineto
895 0 lineto
458 0 lineto
458 2688 lineto
458 3712 moveto
895 3712 lineto
895 3136 lineto
458 3136 lineto
458 3712 lineto
end_ol grestore 
gsave 11.230991 15.366780 translate 0.035278 -0.035278 scale
start_ol
2734 1480 moveto
2734 1280 lineto
724 1280 lineto
753 811 996 565 conicto
1240 320 1674 320 conicto
1926 320 2162 384 conicto
2399 448 2632 576 conicto
2632 192 lineto
2397 67 2150 1 conicto
1903 -64 1648 -64 conicto
1012 -64 640 309 conicto
268 683 268 1320 conicto
268 1979 621 2365 conicto
974 2752 1572 2752 conicto
2109 2752 2421 2410 conicto
2734 2068 2734 1480 conicto
2297 1600 moveto
2292 1950 2096 2159 conicto
1900 2368 1577 2368 conicto
1212 2368 992 2166 conicto
772 1964 739 1597 conicto
2297 1600 lineto
end_ol grestore 
gsave 11.625617 15.366780 translate 0.035278 -0.035278 scale
start_ol
2000 2304 moveto
1926 2337 1839 2352 conicto
1753 2368 1648 2368 conicto
1278 2368 1079 2127 conicto
881 1887 881 1437 conicto
881 0 lineto
442 0 lineto
442 2688 lineto
881 2688 lineto
881 2304 lineto
1019 2531 1240 2641 conicto
1461 2752 1777 2752 conicto
1822 2752 1876 2752 conicto
1931 2752 1998 2752 conicto
2000 2304 lineto
end_ol grestore 
0.100000 slw
[] 0 sd
0 slj
1.000000 1.000000 1.000000 srgb
n 14.670631 7.686525 m 21.078131 7.686525 l 21.078131 11.186525 l 14.670631 11.186525 l ef
0.000000 0.000000 0.000000 srgb
n 14.670631 7.686525 m 21.078131 7.686525 l 21.078131 11.186525 l 14.670631 11.186525 l cp s
gsave 15.220631 8.830588 translate 0.035278 -0.035278 scale
start_ol
1974 1936 moveto
2318 1862 2511 1627 conicto
2705 1392 2705 1046 conicto
2705 516 2344 226 conicto
1983 -64 1318 -64 conicto
1095 -64 859 -16 conicto
623 32 371 128 conicto
371 576 lineto
570 449 807 384 conicto
1045 320 1304 320 conicto
1755 320 1991 504 conicto
2228 688 2228 1039 conicto
2228 1363 2008 1545 conicto
1789 1728 1397 1728 conicto
983 1728 lineto
983 2112 lineto
1416 2112 lineto
1770 2112 1957 2250 conicto
2145 2388 2145 2648 conicto
2145 2915 1951 3057 conicto
1758 3200 1397 3200 conicto
1200 3200 974 3153 conicto
748 3107 477 3008 conicto
477 3456 lineto
750 3520 989 3552 conicto
1228 3584 1439 3584 conicto
1985 3584 2303 3343 conicto
2622 3102 2622 2692 conicto
2622 2406 2453 2209 conicto
2285 2012 1974 1936 conicto
end_ol grestore 
gsave 15.627750 8.830588 translate 0.035278 -0.035278 scale
start_ol
390 3712 moveto
770 3712 lineto
1126 3149 1303 2609 conicto
1480 2070 1480 1538 conicto
1480 1004 1303 462 conicto
1126 -79 770 -640 conicto
390 -640 lineto
706 -94 861 446 conicto
1017 987 1017 1538 conicto
1017 2090 861 2626 conicto
706 3163 390 3712 conicto
end_ol grestore 
gsave 15.877517 8.830588 translate 0.035278 -0.035278 scale
start_ol
end_ol grestore 
gsave 16.079824 8.830588 translate 0.035278 -0.035278 scale
start_ol
477 3520 moveto
957 3520 lineto
957 384 lineto
2684 384 lineto
2684 0 lineto
477 0 lineto
477 3520 lineto
end_ol grestore 
gsave 16.424502 8.830588 translate 0.035278 -0.035278 scale
start_ol
1489 2368 moveto
1138 2368 933 2094 conicto
729 1820 729 1344 conicto
729 868 932 594 conicto
1135 320 1489 320 conicto
1838 320 2042 595 conicto
2247 870 2247 1344 conicto
2247 1816 2042 2092 conicto
1838 2368 1489 2368 conicto
1489 2752 moveto
2059 2752 2384 2378 conicto
2710 2005 2710 1344 conicto
2710 685 2384 310 conicto
2059 -64 1489 -64 conicto
917 -64 592 310 conicto
268 685 268 1344 conicto
268 2005 592 2378 conicto
917 2752 1489 2752 conicto
end_ol grestore 
gsave 16.816631 8.830588 translate 0.035278 -0.035278 scale
start_ol
2209 1375 moveto
2209 1848 2013 2108 conicto
1817 2368 1463 2368 conicto
1112 2368 916 2108 conicto
720 1848 720 1375 conicto
720 904 916 644 conicto
1112 384 1463 384 conicto
1817 384 2013 644 conicto
2209 904 2209 1375 conicto
2646 347 moveto
2646 -347 2344 -685 conicto
2043 -1024 1420 -1024 conicto
1190 -1024 985 -992 conicto
781 -961 589 -896 conicto
589 -448 lineto
781 -546 969 -593 conicto
1157 -640 1351 -640 conicto
1781 -640 1995 -415 conicto
2209 -190 2209 264 conicto
2209 448 lineto
2074 223 1862 111 conicto
1651 0 1356 0 conicto
867 0 567 376 conicto
268 753 268 1375 conicto
268 1999 567 2375 conicto
867 2752 1356 2752 conicto
1651 2752 1862 2640 conicto
2074 2529 2209 2304 conicto
2209 2688 lineto
2646 2688 lineto
2646 347 lineto
end_ol grestore 
gsave 17.223750 8.830588 translate 0.035278 -0.035278 scale
start_ol
1667 1344 moveto
1137 1344 933 1225 conicto
729 1106 729 818 conicto
729 589 882 454 conicto
1035 320 1299 320 conicto
1663 320 1882 572 conicto
2102 825 2102 1244 conicto
2102 1344 lineto
1667 1344 lineto
2539 1513 moveto
2539 0 lineto
2102 0 lineto
2102 384 lineto
1952 154 1729 45 conicto
1506 -64 1183 -64 conicto
774 -64 533 162 conicto
292 389 292 769 conicto
292 1213 592 1438 conicto
893 1664 1489 1664 conicto
2102 1664 lineto
2102 1712 lineto
2102 2025 1903 2196 conicto
1705 2368 1347 2368 conicto
1119 2368 903 2320 conicto
687 2272 487 2176 conicto
487 2560 lineto
727 2656 952 2704 conicto
1178 2752 1392 2752 conicto
1969 2752 2254 2444 conicto
2539 2137 2539 1513 conicto
end_ol grestore 
gsave 17.615879 8.830588 translate 0.035278 -0.035278 scale
start_ol
2000 2304 moveto
1926 2337 1839 2352 conicto
1753 2368 1648 2368 conicto
1278 2368 1079 2127 conicto
881 1887 881 1437 conicto
881 0 lineto
442 0 lineto
442 2688 lineto
881 2688 lineto
881 2304 lineto
1019 2531 1240 2641 conicto
1461 2752 1777 2752 conicto
1822 2752 1876 2752 conicto
1931 2752 1998 2752 conicto
2000 2304 lineto
end_ol grestore 
gsave 17.878131 8.830588 translate 0.035278 -0.035278 scale
start_ol
458 2688 moveto
895 2688 lineto
895 0 lineto
458 0 lineto
458 2688 lineto
458 3712 moveto
895 3712 lineto
895 3136 lineto
458 3136 lineto
458 3712 lineto
end_ol grestore 
gsave 18.055459 8.830588 translate 0.035278 -0.035278 scale
start_ol
891 3456 moveto
891 2688 lineto
1791 2688 lineto
1791 2368 lineto
891 2368 lineto
891 902 lineto
891 572 980 478 conicto
1069 384 1342 384 conicto
1791 384 lineto
1791 0 lineto
1342 0 lineto
836 0 643 194 conicto
451 389 451 902 conicto
451 2368 lineto
131 2368 lineto
131 2688 lineto
451 2688 lineto
451 3456 lineto
891 3456 lineto
end_ol grestore 
gsave 18.305226 8.830588 translate 0.035278 -0.035278 scale
start_ol
2529 2204 moveto
2693 2485 2921 2618 conicto
3149 2752 3458 2752 conicto
3874 2752 4099 2464 conicto
4325 2177 4325 1646 conicto
4325 0 lineto
3886 0 lineto
3886 1632 lineto
3886 2006 3750 2187 conicto
3615 2368 3337 2368 conicto
2997 2368 2800 2146 conicto
2603 1925 2603 1542 conicto
2603 0 lineto
2164 0 lineto
2164 1632 lineto
2164 2008 2028 2188 conicto
1893 2368 1610 2368 conicto
1275 2368 1078 2145 conicto
881 1922 881 1542 conicto
881 0 lineto
442 0 lineto
442 2688 lineto
881 2688 lineto
881 2304 lineto
1031 2534 1240 2643 conicto
1449 2752 1736 2752 conicto
2026 2752 2229 2611 conicto
2432 2471 2529 2204 conicto
end_ol grestore 
gsave 18.927138 8.830588 translate 0.035278 -0.035278 scale
start_ol
1489 2368 moveto
1138 2368 933 2094 conicto
729 1820 729 1344 conicto
729 868 932 594 conicto
1135 320 1489 320 conicto
1838 320 2042 595 conicto
2247 870 2247 1344 conicto
2247 1816 2042 2092 conicto
1838 2368 1489 2368 conicto
1489 2752 moveto
2059 2752 2384 2378 conicto
2710 2005 2710 1344 conicto
2710 685 2384 310 conicto
2059 -64 1489 -64 conicto
917 -64 592 310 conicto
268 685 268 1344 conicto
268 2005 592 2378 conicto
917 2752 1489 2752 conicto
end_ol grestore 
gsave 19.319267 8.830588 translate 0.035278 -0.035278 scale
start_ol
end_ol grestore 
gsave 19.521574 8.830588 translate 0.035278 -0.035278 scale
start_ol
2209 2304 moveto
2209 3712 lineto
2646 3712 lineto
2646 0 lineto
2209 0 lineto
2209 384 lineto
2071 157 1861 46 conicto
1651 -64 1356 -64 conicto
874 -64 571 324 conicto
268 712 268 1344 conicto
268 1976 571 2364 conicto
874 2752 1356 2752 conicto
1651 2752 1861 2641 conicto
2071 2531 2209 2304 conicto
720 1344 moveto
720 865 918 592 conicto
1117 320 1463 320 conicto
1810 320 2009 592 conicto
2209 865 2209 1344 conicto
2209 1823 2009 2095 conicto
1810 2368 1463 2368 conicto
1117 2368 918 2095 conicto
720 1823 720 1344 conicto
end_ol grestore 
gsave 19.928693 8.830588 translate 0.035278 -0.035278 scale
start_ol
1667 1344 moveto
1137 1344 933 1225 conicto
729 1106 729 818 conicto
729 589 882 454 conicto
1035 320 1299 320 conicto
1663 320 1882 572 conicto
2102 825 2102 1244 conicto
2102 1344 lineto
1667 1344 lineto
2539 1513 moveto
2539 0 lineto
2102 0 lineto
2102 384 lineto
1952 154 1729 45 conicto
1506 -64 1183 -64 conicto
774 -64 533 162 conicto
292 389 292 769 conicto
292 1213 592 1438 conicto
893 1664 1489 1664 conicto
2102 1664 lineto
2102 1712 lineto
2102 2025 1903 2196 conicto
1705 2368 1347 2368 conicto
1119 2368 903 2320 conicto
687 2272 487 2176 conicto
487 2560 lineto
727 2656 952 2704 conicto
1178 2752 1392 2752 conicto
1969 2752 2254 2444 conicto
2539 2137 2539 1513 conicto
end_ol grestore 
gsave 20.320822 8.830588 translate 0.035278 -0.035278 scale
start_ol
end_ol grestore 
gsave 16.256881 9.630588 translate 0.035278 -0.035278 scale
start_ol
1667 1344 moveto
1137 1344 933 1225 conicto
729 1106 729 818 conicto
729 589 882 454 conicto
1035 320 1299 320 conicto
1663 320 1882 572 conicto
2102 825 2102 1244 conicto
2102 1344 lineto
1667 1344 lineto
2539 1513 moveto
2539 0 lineto
2102 0 lineto
2102 384 lineto
1952 154 1729 45 conicto
1506 -64 1183 -64 conicto
774 -64 533 162 conicto
292 389 292 769 conicto
292 1213 592 1438 conicto
893 1664 1489 1664 conicto
2102 1664 lineto
2102 1712 lineto
2102 2025 1903 2196 conicto
1705 2368 1347 2368 conicto
1119 2368 903 2320 conicto
687 2272 487 2176 conicto
487 2560 lineto
727 2656 952 2704 conicto
1178 2752 1392 2752 conicto
1969 2752 2254 2444 conicto
2539 2137 2539 1513 conicto
end_ol grestore 
gsave 16.649010 9.630588 translate 0.035278 -0.035278 scale
start_ol
2529 2204 moveto
2693 2485 2921 2618 conicto
3149 2752 3458 2752 conicto
3874 2752 4099 2464 conicto
4325 2177 4325 1646 conicto
4325 0 lineto
3886 0 lineto
3886 1632 lineto
3886 2006 3750 2187 conicto
3615 2368 3337 2368 conicto
2997 2368 2800 2146 conicto
2603 1925 2603 1542 conicto
2603 0 lineto
2164 0 lineto
2164 1632 lineto
2164 2008 2028 2188 conicto
1893 2368 1610 2368 conicto
1275 2368 1078 2145 conicto
881 1922 881 1542 conicto
881 0 lineto
442 0 lineto
442 2688 lineto
881 2688 lineto
881 2304 lineto
1031 2534 1240 2643 conicto
1449 2752 1736 2752 conicto
2026 2752 2229 2611 conicto
2432 2471 2529 2204 conicto
end_ol grestore 
gsave 17.270921 9.630588 translate 0.035278 -0.035278 scale
start_ol
881 384 moveto
881 -1024 lineto
442 -1024 lineto
442 2688 lineto
881 2688 lineto
881 2304 lineto
1019 2531 1229 2641 conicto
1439 2752 1732 2752 conicto
2216 2752 2519 2364 conicto
2822 1976 2822 1344 conicto
2822 712 2519 324 conicto
2216 -64 1732 -64 conicto
1439 -64 1229 46 conicto
1019 157 881 384 conicto
2368 1344 moveto
2368 1823 2169 2095 conicto
1971 2368 1624 2368 conicto
1278 2368 1079 2095 conicto
881 1823 881 1344 conicto
881 865 1079 592 conicto
1278 320 1624 320 conicto
1971 320 2169 592 conicto
2368 865 2368 1344 conicto
end_ol grestore 
gsave 17.678041 9.630588 translate 0.035278 -0.035278 scale
start_ol
458 3712 moveto
895 3712 lineto
895 0 lineto
458 0 lineto
458 3712 lineto
end_ol grestore 
gsave 17.855369 9.630588 translate 0.035278 -0.035278 scale
start_ol
458 2688 moveto
895 2688 lineto
895 0 lineto
458 0 lineto
458 2688 lineto
458 3712 moveto
895 3712 lineto
895 3136 lineto
458 3136 lineto
458 3712 lineto
end_ol grestore 
gsave 18.032698 9.630588 translate 0.035278 -0.035278 scale
start_ol
891 3456 moveto
891 2688 lineto
1791 2688 lineto
1791 2368 lineto
891 2368 lineto
891 902 lineto
891 572 980 478 conicto
1069 384 1342 384 conicto
1791 384 lineto
1791 0 lineto
1342 0 lineto
836 0 643 194 conicto
451 389 451 902 conicto
451 2368 lineto
131 2368 lineto
131 2688 lineto
451 2688 lineto
451 3456 lineto
891 3456 lineto
end_ol grestore 
gsave 18.282465 9.630588 translate 0.035278 -0.035278 scale
start_ol
413 1040 moveto
413 2688 lineto
850 2688 lineto
850 1057 lineto
850 689 997 504 conicto
1145 320 1439 320 conicto
1793 320 1998 541 conicto
2204 763 2204 1145 conicto
2204 2688 lineto
2641 2688 lineto
2641 0 lineto
2204 0 lineto
2204 384 lineto
2045 157 1834 46 conicto
1624 -64 1347 -64 conicto
888 -64 650 217 conicto
413 499 413 1040 conicto
1513 2752 moveto
1513 2752 lineto
end_ol grestore 
gsave 18.687079 9.630588 translate 0.035278 -0.035278 scale
start_ol
2209 2304 moveto
2209 3712 lineto
2646 3712 lineto
2646 0 lineto
2209 0 lineto
2209 384 lineto
2071 157 1861 46 conicto
1651 -64 1356 -64 conicto
874 -64 571 324 conicto
268 712 268 1344 conicto
268 1976 571 2364 conicto
874 2752 1356 2752 conicto
1651 2752 1861 2641 conicto
2071 2531 2209 2304 conicto
720 1344 moveto
720 865 918 592 conicto
1117 320 1463 320 conicto
1810 320 2009 592 conicto
2209 865 2209 1344 conicto
2209 1823 2009 2095 conicto
1810 2368 1463 2368 conicto
1117 2368 918 2095 conicto
720 1823 720 1344 conicto
end_ol grestore 
gsave 19.094198 9.630588 translate 0.035278 -0.035278 scale
start_ol
2734 1480 moveto
2734 1280 lineto
724 1280 lineto
753 811 996 565 conicto
1240 320 1674 320 conicto
1926 320 2162 384 conicto
2399 448 2632 576 conicto
2632 192 lineto
2397 67 2150 1 conicto
1903 -64 1648 -64 conicto
1012 -64 640 309 conicto
268 683 268 1320 conicto
268 1979 621 2365 conicto
974 2752 1572 2752 conicto
2109 2752 2421 2410 conicto
2734 2068 2734 1480 conicto
2297 1600 moveto
2292 1950 2096 2159 conicto
1900 2368 1577 2368 conicto
1212 2368 992 2166 conicto
772 1964 739 1597 conicto
2297 1600 lineto
end_ol grestore 
gsave 15.985631 10.430588 translate 0.035278 -0.035278 scale
start_ol
2209 2304 moveto
2209 3712 lineto
2646 3712 lineto
2646 0 lineto
2209 0 lineto
2209 384 lineto
2071 157 1861 46 conicto
1651 -64 1356 -64 conicto
874 -64 571 324 conicto
268 712 268 1344 conicto
268 1976 571 2364 conicto
874 2752 1356 2752 conicto
1651 2752 1861 2641 conicto
2071 2531 2209 2304 conicto
720 1344 moveto
720 865 918 592 conicto
1117 320 1463 320 conicto
1810 320 2009 592 conicto
2209 865 2209 1344 conicto
2209 1823 2009 2095 conicto
1810 2368 1463 2368 conicto
1117 2368 918 2095 conicto
720 1823 720 1344 conicto
end_ol grestore 
gsave 16.392750 10.430588 translate 0.035278 -0.035278 scale
start_ol
1489 2368 moveto
1138 2368 933 2094 conicto
729 1820 729 1344 conicto
729 868 932 594 conicto
1135 320 1489 320 conicto
1838 320 2042 595 conicto
2247 870 2247 1344 conicto
2247 1816 2042 2092 conicto
1838 2368 1489 2368 conicto
1489 2752 moveto
2059 2752 2384 2378 conicto
2710 2005 2710 1344 conicto
2710 685 2384 310 conicto
2059 -64 1489 -64 conicto
917 -64 592 310 conicto
268 685 268 1344 conicto
268 2005 592 2378 conicto
917 2752 1489 2752 conicto
end_ol grestore 
gsave 16.784879 10.430588 translate 0.035278 -0.035278 scale
start_ol
end_ol grestore 
gsave 16.987186 10.430588 translate 0.035278 -0.035278 scale
start_ol
2734 1480 moveto
2734 1280 lineto
724 1280 lineto
753 811 996 565 conicto
1240 320 1674 320 conicto
1926 320 2162 384 conicto
2399 448 2632 576 conicto
2632 192 lineto
2397 67 2150 1 conicto
1903 -64 1648 -64 conicto
1012 -64 640 309 conicto
268 683 268 1320 conicto
268 1979 621 2365 conicto
974 2752 1572 2752 conicto
2109 2752 2421 2410 conicto
2734 2068 2734 1480 conicto
2297 1600 moveto
2292 1950 2096 2159 conicto
1900 2368 1577 2368 conicto
1212 2368 992 2166 conicto
772 1964 739 1597 conicto
2297 1600 lineto
end_ol grestore 
gsave 17.381812 10.430588 translate 0.035278 -0.035278 scale
start_ol
2154 2560 moveto
2154 2176 lineto
1969 2272 1769 2320 conicto
1570 2368 1356 2368 conicto
1030 2368 867 2269 conicto
705 2170 705 1972 conicto
705 1821 821 1735 conicto
938 1649 1290 1571 conicto
1439 1538 lineto
1905 1438 2101 1255 conicto
2297 1072 2297 744 conicto
2297 371 2003 153 conicto
1710 -64 1197 -64 conicto
984 -64 752 -16 conicto
521 32 264 128 conicto
264 576 lineto
506 448 741 384 conicto
976 320 1207 320 conicto
1516 320 1682 425 conicto
1848 531 1848 722 conicto
1848 900 1728 994 conicto
1608 1089 1202 1177 conicto
1050 1212 lineto
644 1298 463 1476 conicto
283 1654 283 1964 conicto
283 2341 549 2546 conicto
815 2752 1304 2752 conicto
1546 2752 1760 2704 conicto
1974 2656 2154 2560 conicto
end_ol grestore 
gsave 17.713997 10.430588 translate 0.035278 -0.035278 scale
start_ol
881 384 moveto
881 -1024 lineto
442 -1024 lineto
442 2688 lineto
881 2688 lineto
881 2304 lineto
1019 2531 1229 2641 conicto
1439 2752 1732 2752 conicto
2216 2752 2519 2364 conicto
2822 1976 2822 1344 conicto
2822 712 2519 324 conicto
2216 -64 1732 -64 conicto
1439 -64 1229 46 conicto
1019 157 881 384 conicto
2368 1344 moveto
2368 1823 2169 2095 conicto
1971 2368 1624 2368 conicto
1278 2368 1079 2095 conicto
881 1823 881 1344 conicto
881 865 1079 592 conicto
1278 320 1624 320 conicto
1971 320 2169 592 conicto
2368 865 2368 1344 conicto
end_ol grestore 
gsave 18.121116 10.430588 translate 0.035278 -0.035278 scale
start_ol
2734 1480 moveto
2734 1280 lineto
724 1280 lineto
753 811 996 565 conicto
1240 320 1674 320 conicto
1926 320 2162 384 conicto
2399 448 2632 576 conicto
2632 192 lineto
2397 67 2150 1 conicto
1903 -64 1648 -64 conicto
1012 -64 640 309 conicto
268 683 268 1320 conicto
268 1979 621 2365 conicto
974 2752 1572 2752 conicto
2109 2752 2421 2410 conicto
2734 2068 2734 1480 conicto
2297 1600 moveto
2292 1950 2096 2159 conicto
1900 2368 1577 2368 conicto
1212 2368 992 2166 conicto
772 1964 739 1597 conicto
2297 1600 lineto
end_ol grestore 
gsave 18.515742 10.430588 translate 0.035278 -0.035278 scale
start_ol
2373 2560 moveto
2373 2176 lineto
2188 2272 2001 2320 conicto
1815 2368 1625 2368 conicto
1199 2368 964 2099 conicto
729 1830 729 1344 conicto
729 858 964 589 conicto
1199 320 1625 320 conicto
1815 320 2001 368 conicto
2188 416 2373 512 conicto
2373 128 lineto
2190 32 1994 -16 conicto
1798 -64 1577 -64 conicto
976 -64 622 316 conicto
268 697 268 1344 conicto
268 2000 625 2376 conicto
983 2752 1606 2752 conicto
1808 2752 2000 2704 conicto
2192 2656 2373 2560 conicto
end_ol grestore 
gsave 18.867911 10.430588 translate 0.035278 -0.035278 scale
start_ol
891 3456 moveto
891 2688 lineto
1791 2688 lineto
1791 2368 lineto
891 2368 lineto
891 902 lineto
891 572 980 478 conicto
1069 384 1342 384 conicto
1791 384 lineto
1791 0 lineto
1342 0 lineto
836 0 643 194 conicto
451 389 451 902 conicto
451 2368 lineto
131 2368 lineto
131 2688 lineto
451 2688 lineto
451 3456 lineto
891 3456 lineto
end_ol grestore 
gsave 19.117677 10.430588 translate 0.035278 -0.035278 scale
start_ol
2000 2304 moveto
1926 2337 1839 2352 conicto
1753 2368 1648 2368 conicto
1278 2368 1079 2127 conicto
881 1887 881 1437 conicto
881 0 lineto
442 0 lineto
442 2688 lineto
881 2688 lineto
881 2304 lineto
1019 2531 1240 2641 conicto
1461 2752 1777 2752 conicto
1822 2752 1876 2752 conicto
1931 2752 1998 2752 conicto
2000 2304 lineto
end_ol grestore 
gsave 19.367444 10.430588 translate 0.035278 -0.035278 scale
start_ol
1489 2368 moveto
1138 2368 933 2094 conicto
729 1820 729 1344 conicto
729 868 932 594 conicto
1135 320 1489 320 conicto
1838 320 2042 595 conicto
2247 870 2247 1344 conicto
2247 1816 2042 2092 conicto
1838 2368 1489 2368 conicto
1489 2752 moveto
2059 2752 2384 2378 conicto
2710 2005 2710 1344 conicto
2710 685 2384 310 conicto
2059 -64 1489 -64 conicto
917 -64 592 310 conicto
268 685 268 1344 conicto
268 2005 592 2378 conicto
917 2752 1489 2752 conicto
end_ol grestore 
0.100000 slw
[] 0 sd
0 slj
1.000000 1.000000 1.000000 srgb
n 14.750631 12.622718 m 20.998131 12.622718 l 20.998131 16.122718 l 14.750631 16.122718 l ef
0.000000 0.000000 0.000000 srgb
n 14.750631 12.622718 m 20.998131 12.622718 l 20.998131 16.122718 l 14.750631 16.122718 l cp s
gsave 15.300631 13.766780 translate 0.035278 -0.035278 scale
start_ol
1838 3103 moveto
627 1216 lineto
1838 1216 lineto
1838 3103 lineto
1713 3520 moveto
2316 3520 lineto
2316 1216 lineto
2822 1216 lineto
2822 832 lineto
2316 832 lineto
2316 0 lineto
1838 0 lineto
1838 832 lineto
238 832 lineto
238 1291 lineto
1713 3520 lineto
end_ol grestore 
gsave 15.707750 13.766780 translate 0.035278 -0.035278 scale
start_ol
390 3712 moveto
770 3712 lineto
1126 3149 1303 2609 conicto
1480 2070 1480 1538 conicto
1480 1004 1303 462 conicto
1126 -79 770 -640 conicto
390 -640 lineto
706 -94 861 446 conicto
1017 987 1017 1538 conicto
1017 2090 861 2626 conicto
706 3163 390 3712 conicto
end_ol grestore 
gsave 15.957517 13.766780 translate 0.035278 -0.035278 scale
start_ol
end_ol grestore 
gsave 16.159824 13.766780 translate 0.035278 -0.035278 scale
start_ol
1663 3047 moveto
1012 1280 lineto
2316 1280 lineto
1663 3047 lineto
1392 3520 moveto
1936 3520 lineto
3287 0 lineto
2788 0 lineto
2465 896 lineto
867 896 lineto
544 0 lineto
38 0 lineto
1392 3520 lineto
end_ol grestore 
gsave 16.596916 13.766780 translate 0.035278 -0.035278 scale
start_ol
881 384 moveto
881 -1024 lineto
442 -1024 lineto
442 2688 lineto
881 2688 lineto
881 2304 lineto
1019 2531 1229 2641 conicto
1439 2752 1732 2752 conicto
2216 2752 2519 2364 conicto
2822 1976 2822 1344 conicto
2822 712 2519 324 conicto
2216 -64 1732 -64 conicto
1439 -64 1229 46 conicto
1019 157 881 384 conicto
2368 1344 moveto
2368 1823 2169 2095 conicto
1971 2368 1624 2368 conicto
1278 2368 1079 2095 conicto
881 1823 881 1344 conicto
881 865 1079 592 conicto
1278 320 1624 320 conicto
1971 320 2169 592 conicto
2368 865 2368 1344 conicto
end_ol grestore 
gsave 17.004035 13.766780 translate 0.035278 -0.035278 scale
start_ol
458 3712 moveto
895 3712 lineto
895 0 lineto
458 0 lineto
458 3712 lineto
end_ol grestore 
gsave 17.181364 13.766780 translate 0.035278 -0.035278 scale
start_ol
458 2688 moveto
895 2688 lineto
895 0 lineto
458 0 lineto
458 2688 lineto
458 3712 moveto
895 3712 lineto
895 3136 lineto
458 3136 lineto
458 3712 lineto
end_ol grestore 
gsave 17.358692 13.766780 translate 0.035278 -0.035278 scale
start_ol
2373 2560 moveto
2373 2176 lineto
2188 2272 2001 2320 conicto
1815 2368 1625 2368 conicto
1199 2368 964 2099 conicto
729 1830 729 1344 conicto
729 858 964 589 conicto
1199 320 1625 320 conicto
1815 320 2001 368 conicto
2188 416 2373 512 conicto
2373 128 lineto
2190 32 1994 -16 conicto
1798 -64 1577 -64 conicto
976 -64 622 316 conicto
268 697 268 1344 conicto
268 2000 625 2376 conicto
983 2752 1606 2752 conicto
1808 2752 2000 2704 conicto
2192 2656 2373 2560 conicto
end_ol grestore 
gsave 17.710861 13.766780 translate 0.035278 -0.035278 scale
start_ol
1667 1344 moveto
1137 1344 933 1225 conicto
729 1106 729 818 conicto
729 589 882 454 conicto
1035 320 1299 320 conicto
1663 320 1882 572 conicto
2102 825 2102 1244 conicto
2102 1344 lineto
1667 1344 lineto
2539 1513 moveto
2539 0 lineto
2102 0 lineto
2102 384 lineto
1952 154 1729 45 conicto
1506 -64 1183 -64 conicto
774 -64 533 162 conicto
292 389 292 769 conicto
292 1213 592 1438 conicto
893 1664 1489 1664 conicto
2102 1664 lineto
2102 1712 lineto
2102 2025 1903 2196 conicto
1705 2368 1347 2368 conicto
1119 2368 903 2320 conicto
687 2272 487 2176 conicto
487 2560 lineto
727 2656 952 2704 conicto
1178 2752 1392 2752 conicto
1969 2752 2254 2444 conicto
2539 2137 2539 1513 conicto
end_ol grestore 
gsave 18.102990 13.766780 translate 0.035278 -0.035278 scale
start_ol
2373 2560 moveto
2373 2176 lineto
2188 2272 2001 2320 conicto
1815 2368 1625 2368 conicto
1199 2368 964 2099 conicto
729 1830 729 1344 conicto
729 858 964 589 conicto
1199 320 1625 320 conicto
1815 320 2001 368 conicto
2188 416 2373 512 conicto
2373 128 lineto
2190 32 1994 -16 conicto
1798 -64 1577 -64 conicto
976 -64 622 316 conicto
268 697 268 1344 conicto
268 2000 625 2376 conicto
983 2752 1606 2752 conicto
1808 2752 2000 2704 conicto
2192 2656 2373 2560 conicto
1756 0 moveto
1886 -151 1950 -278 conicto
2014 -406 2014 -523 conicto
2014 -739 1871 -849 conicto
1729 -960 1449 -960 conicto
1340 -960 1236 -944 conicto
1133 -929 1031 -898 conicto
1031 -576 lineto
1112 -610 1200 -625 conicto
1288 -640 1399 -640 conicto
1539 -640 1610 -583 conicto
1682 -527 1682 -419 conicto
1682 -348 1631 -246 conicto
1580 -144 1473 0 conicto
1756 0 lineto
end_ol grestore 
gsave 18.455159 13.766780 translate 0.035278 -0.035278 scale
start_ol
1667 1344 moveto
1137 1344 933 1225 conicto
729 1106 729 818 conicto
729 589 882 454 conicto
1035 320 1299 320 conicto
1663 320 1882 572 conicto
2102 825 2102 1244 conicto
2102 1344 lineto
1667 1344 lineto
2539 1513 moveto
2539 0 lineto
2102 0 lineto
2102 384 lineto
1952 154 1729 45 conicto
1506 -64 1183 -64 conicto
774 -64 533 162 conicto
292 389 292 769 conicto
292 1213 592 1438 conicto
893 1664 1489 1664 conicto
2102 1664 lineto
2102 1712 lineto
2102 2025 1903 2196 conicto
1705 2368 1347 2368 conicto
1119 2368 903 2320 conicto
687 2272 487 2176 conicto
487 2560 lineto
727 2656 952 2704 conicto
1178 2752 1392 2752 conicto
1969 2752 2254 2444 conicto
2539 2137 2539 1513 conicto
1402 3226 moveto
1266 3364 lineto
1214 3411 1174 3433 conicto
1135 3456 1105 3456 conicto
1014 3456 971 3365 conicto
929 3275 924 3072 conicto
627 3072 lineto
632 3409 753 3592 conicto
874 3776 1091 3776 conicto
1181 3776 1257 3740 conicto
1333 3705 1421 3622 conicto
1556 3484 lineto
1608 3437 1647 3414 conicto
1687 3392 1718 3392 conicto
1808 3392 1850 3482 conicto
1893 3573 1898 3776 conicto
2195 3776 lineto
2190 3439 2069 3255 conicto
1948 3072 1732 3072 conicto
1642 3072 1566 3107 conicto
1490 3143 1402 3226 conicto
end_ol grestore 
gsave 18.847288 13.766780 translate 0.035278 -0.035278 scale
start_ol
1489 2368 moveto
1138 2368 933 2094 conicto
729 1820 729 1344 conicto
729 868 932 594 conicto
1135 320 1489 320 conicto
1838 320 2042 595 conicto
2247 870 2247 1344 conicto
2247 1816 2042 2092 conicto
1838 2368 1489 2368 conicto
1489 2752 moveto
2059 2752 2384 2378 conicto
2710 2005 2710 1344 conicto
2710 685 2384 310 conicto
2059 -64 1489 -64 conicto
917 -64 592 310 conicto
268 685 268 1344 conicto
268 2005 592 2378 conicto
917 2752 1489 2752 conicto
end_ol grestore 
gsave 19.239417 13.766780 translate 0.035278 -0.035278 scale
start_ol
end_ol grestore 
gsave 19.441724 13.766780 translate 0.035278 -0.035278 scale
start_ol
2209 2304 moveto
2209 3712 lineto
2646 3712 lineto
2646 0 lineto
2209 0 lineto
2209 384 lineto
2071 157 1861 46 conicto
1651 -64 1356 -64 conicto
874 -64 571 324 conicto
268 712 268 1344 conicto
268 1976 571 2364 conicto
874 2752 1356 2752 conicto
1651 2752 1861 2641 conicto
2071 2531 2209 2304 conicto
720 1344 moveto
720 865 918 592 conicto
1117 320 1463 320 conicto
1810 320 2009 592 conicto
2209 865 2209 1344 conicto
2209 1823 2009 2095 conicto
1810 2368 1463 2368 conicto
1117 2368 918 2095 conicto
720 1823 720 1344 conicto
end_ol grestore 
gsave 19.848843 13.766780 translate 0.035278 -0.035278 scale
start_ol
1667 1344 moveto
1137 1344 933 1225 conicto
729 1106 729 818 conicto
729 589 882 454 conicto
1035 320 1299 320 conicto
1663 320 1882 572 conicto
2102 825 2102 1244 conicto
2102 1344 lineto
1667 1344 lineto
2539 1513 moveto
2539 0 lineto
2102 0 lineto
2102 384 lineto
1952 154 1729 45 conicto
1506 -64 1183 -64 conicto
774 -64 533 162 conicto
292 389 292 769 conicto
292 1213 592 1438 conicto
893 1664 1489 1664 conicto
2102 1664 lineto
2102 1712 lineto
2102 2025 1903 2196 conicto
1705 2368 1347 2368 conicto
1119 2368 903 2320 conicto
687 2272 487 2176 conicto
487 2560 lineto
727 2656 952 2704 conicto
1178 2752 1392 2752 conicto
1969 2752 2254 2444 conicto
2539 2137 2539 1513 conicto
end_ol grestore 
gsave 20.240972 13.766780 translate 0.035278 -0.035278 scale
start_ol
end_ol grestore 
gsave 15.890631 14.566780 translate 0.035278 -0.035278 scale
start_ol
2734 1480 moveto
2734 1280 lineto
724 1280 lineto
753 811 996 565 conicto
1240 320 1674 320 conicto
1926 320 2162 384 conicto
2399 448 2632 576 conicto
2632 192 lineto
2397 67 2150 1 conicto
1903 -64 1648 -64 conicto
1012 -64 640 309 conicto
268 683 268 1320 conicto
268 1979 621 2365 conicto
974 2752 1572 2752 conicto
2109 2752 2421 2410 conicto
2734 2068 2734 1480 conicto
2297 1600 moveto
2292 1950 2096 2159 conicto
1900 2368 1577 2368 conicto
1212 2368 992 2166 conicto
772 1964 739 1597 conicto
2297 1600 lineto
end_ol grestore 
gsave 16.285257 14.566780 translate 0.035278 -0.035278 scale
start_ol
2154 2560 moveto
2154 2176 lineto
1969 2272 1769 2320 conicto
1570 2368 1356 2368 conicto
1030 2368 867 2269 conicto
705 2170 705 1972 conicto
705 1821 821 1735 conicto
938 1649 1290 1571 conicto
1439 1538 lineto
1905 1438 2101 1255 conicto
2297 1072 2297 744 conicto
2297 371 2003 153 conicto
1710 -64 1197 -64 conicto
984 -64 752 -16 conicto
521 32 264 128 conicto
264 576 lineto
506 448 741 384 conicto
976 320 1207 320 conicto
1516 320 1682 425 conicto
1848 531 1848 722 conicto
1848 900 1728 994 conicto
1608 1089 1202 1177 conicto
1050 1212 lineto
644 1298 463 1476 conicto
283 1654 283 1964 conicto
283 2341 549 2546 conicto
815 2752 1304 2752 conicto
1546 2752 1760 2704 conicto
1974 2656 2154 2560 conicto
end_ol grestore 
gsave 16.617441 14.566780 translate 0.035278 -0.035278 scale
start_ol
2373 2560 moveto
2373 2176 lineto
2188 2272 2001 2320 conicto
1815 2368 1625 2368 conicto
1199 2368 964 2099 conicto
729 1830 729 1344 conicto
729 858 964 589 conicto
1199 320 1625 320 conicto
1815 320 2001 368 conicto
2188 416 2373 512 conicto
2373 128 lineto
2190 32 1994 -16 conicto
1798 -64 1577 -64 conicto
976 -64 622 316 conicto
268 697 268 1344 conicto
268 2000 625 2376 conicto
983 2752 1606 2752 conicto
1808 2752 2000 2704 conicto
2192 2656 2373 2560 conicto
end_ol grestore 
gsave 16.969610 14.566780 translate 0.035278 -0.035278 scale
start_ol
1667 1344 moveto
1137 1344 933 1225 conicto
729 1106 729 818 conicto
729 589 882 454 conicto
1035 320 1299 320 conicto
1663 320 1882 572 conicto
2102 825 2102 1244 conicto
2102 1344 lineto
1667 1344 lineto
2539 1513 moveto
2539 0 lineto
2102 0 lineto
2102 384 lineto
1952 154 1729 45 conicto
1506 -64 1183 -64 conicto
774 -64 533 162 conicto
292 389 292 769 conicto
292 1213 592 1438 conicto
893 1664 1489 1664 conicto
2102 1664 lineto
2102 1712 lineto
2102 2025 1903 2196 conicto
1705 2368 1347 2368 conicto
1119 2368 903 2320 conicto
687 2272 487 2176 conicto
487 2560 lineto
727 2656 952 2704 conicto
1178 2752 1392 2752 conicto
1969 2752 2254 2444 conicto
2539 2137 2539 1513 conicto
end_ol grestore 
gsave 17.361739 14.566780 translate 0.035278 -0.035278 scale
start_ol
458 3712 moveto
895 3712 lineto
895 0 lineto
458 0 lineto
458 3712 lineto
end_ol grestore 
gsave 17.539068 14.566780 translate 0.035278 -0.035278 scale
start_ol
1667 1344 moveto
1137 1344 933 1225 conicto
729 1106 729 818 conicto
729 589 882 454 conicto
1035 320 1299 320 conicto
1663 320 1882 572 conicto
2102 825 2102 1244 conicto
2102 1344 lineto
1667 1344 lineto
2539 1513 moveto
2539 0 lineto
2102 0 lineto
2102 384 lineto
1952 154 1729 45 conicto
1506 -64 1183 -64 conicto
774 -64 533 162 conicto
292 389 292 769 conicto
292 1213 592 1438 conicto
893 1664 1489 1664 conicto
2102 1664 lineto
2102 1712 lineto
2102 2025 1903 2196 conicto
1705 2368 1347 2368 conicto
1119 2368 903 2320 conicto
687 2272 487 2176 conicto
487 2560 lineto
727 2656 952 2704 conicto
1178 2752 1392 2752 conicto
1969 2752 2254 2444 conicto
2539 2137 2539 1513 conicto
end_ol grestore 
gsave 17.931197 14.566780 translate 0.035278 -0.035278 scale
start_ol
end_ol grestore 
gsave 18.133504 14.566780 translate 0.035278 -0.035278 scale
start_ol
477 3520 moveto
1192 3520 lineto
2097 1148 lineto
3007 3520 lineto
3722 3520 lineto
3722 0 lineto
3254 0 lineto
3254 3095 lineto
2339 704 lineto
1857 704 lineto
943 3095 lineto
943 0 lineto
477 0 lineto
477 3520 lineto
end_ol grestore 
gsave 18.685483 14.566780 translate 0.035278 -0.035278 scale
start_ol
2734 1480 moveto
2734 1280 lineto
724 1280 lineto
753 811 996 565 conicto
1240 320 1674 320 conicto
1926 320 2162 384 conicto
2399 448 2632 576 conicto
2632 192 lineto
2397 67 2150 1 conicto
1903 -64 1648 -64 conicto
1012 -64 640 309 conicto
268 683 268 1320 conicto
268 1979 621 2365 conicto
974 2752 1572 2752 conicto
2109 2752 2421 2410 conicto
2734 2068 2734 1480 conicto
2297 1600 moveto
2292 1950 2096 2159 conicto
1900 2368 1577 2368 conicto
1212 2368 992 2166 conicto
772 1964 739 1597 conicto
2297 1600 lineto
end_ol grestore 
gsave 19.080109 14.566780 translate 0.035278 -0.035278 scale
start_ol
458 3712 moveto
895 3712 lineto
895 0 lineto
458 0 lineto
458 3712 lineto
end_ol grestore 
gsave 19.257437 14.566780 translate 0.035278 -0.035278 scale
start_ol
end_ol grestore 
gsave 19.459744 14.566780 translate 0.035278 -0.035278 scale
start_ol
2734 1480 moveto
2734 1280 lineto
724 1280 lineto
753 811 996 565 conicto
1240 320 1674 320 conicto
1926 320 2162 384 conicto
2399 448 2632 576 conicto
2632 192 lineto
2397 67 2150 1 conicto
1903 -64 1648 -64 conicto
1012 -64 640 309 conicto
268 683 268 1320 conicto
268 1979 621 2365 conicto
974 2752 1572 2752 conicto
2109 2752 2421 2410 conicto
2734 2068 2734 1480 conicto
2297 1600 moveto
2292 1950 2096 2159 conicto
1900 2368 1577 2368 conicto
1212 2368 992 2166 conicto
772 1964 739 1597 conicto
2297 1600 lineto
end_ol grestore 
gsave 16.098131 15.366780 translate 0.035278 -0.035278 scale
start_ol
2154 2560 moveto
2154 2176 lineto
1969 2272 1769 2320 conicto
1570 2368 1356 2368 conicto
1030 2368 867 2269 conicto
705 2170 705 1972 conicto
705 1821 821 1735 conicto
938 1649 1290 1571 conicto
1439 1538 lineto
1905 1438 2101 1255 conicto
2297 1072 2297 744 conicto
2297 371 2003 153 conicto
1710 -64 1197 -64 conicto
984 -64 752 -16 conicto
521 32 264 128 conicto
264 576 lineto
506 448 741 384 conicto
976 320 1207 320 conicto
1516 320 1682 425 conicto
1848 531 1848 722 conicto
1848 900 1728 994 conicto
1608 1089 1202 1177 conicto
1050 1212 lineto
644 1298 463 1476 conicto
283 1654 283 1964 conicto
283 2341 549 2546 conicto
815 2752 1304 2752 conicto
1546 2752 1760 2704 conicto
1974 2656 2154 2560 conicto
end_ol grestore 
gsave 16.430315 15.366780 translate 0.035278 -0.035278 scale
start_ol
413 1040 moveto
413 2688 lineto
850 2688 lineto
850 1057 lineto
850 689 997 504 conicto
1145 320 1439 320 conicto
1793 320 1998 541 conicto
2204 763 2204 1145 conicto
2204 2688 lineto
2641 2688 lineto
2641 0 lineto
2204 0 lineto
2204 384 lineto
2045 157 1834 46 conicto
1624 -64 1347 -64 conicto
888 -64 650 217 conicto
413 499 413 1040 conicto
1513 2752 moveto
1513 2752 lineto
end_ol grestore 
gsave 16.834929 15.366780 translate 0.035278 -0.035278 scale
start_ol
1667 1344 moveto
1137 1344 933 1225 conicto
729 1106 729 818 conicto
729 589 882 454 conicto
1035 320 1299 320 conicto
1663 320 1882 572 conicto
2102 825 2102 1244 conicto
2102 1344 lineto
1667 1344 lineto
2539 1513 moveto
2539 0 lineto
2102 0 lineto
2102 384 lineto
1952 154 1729 45 conicto
1506 -64 1183 -64 conicto
774 -64 533 162 conicto
292 389 292 769 conicto
292 1213 592 1438 conicto
893 1664 1489 1664 conicto
2102 1664 lineto
2102 1712 lineto
2102 2025 1903 2196 conicto
1705 2368 1347 2368 conicto
1119 2368 903 2320 conicto
687 2272 487 2176 conicto
487 2560 lineto
727 2656 952 2704 conicto
1178 2752 1392 2752 conicto
1969 2752 2254 2444 conicto
2539 2137 2539 1513 conicto
end_ol grestore 
gsave 17.227058 15.366780 translate 0.035278 -0.035278 scale
start_ol
145 2688 moveto
608 2688 lineto
1439 432 lineto
2271 2688 lineto
2734 2688 lineto
1736 0 lineto
1142 0 lineto
145 2688 lineto
end_ol grestore 
gsave 17.606702 15.366780 translate 0.035278 -0.035278 scale
start_ol
458 2688 moveto
895 2688 lineto
895 0 lineto
458 0 lineto
458 2688 lineto
458 3712 moveto
895 3712 lineto
895 3136 lineto
458 3136 lineto
458 3712 lineto
end_ol grestore 
gsave 17.784031 15.366780 translate 0.035278 -0.035278 scale
start_ol
268 2688 moveto
2344 2688 lineto
2344 2279 lineto
701 320 lineto
2344 320 lineto
2344 0 lineto
209 0 lineto
209 409 lineto
1853 2368 lineto
268 2368 lineto
268 2688 lineto
end_ol grestore 
gsave 18.118713 15.366780 translate 0.035278 -0.035278 scale
start_ol
1667 1344 moveto
1137 1344 933 1225 conicto
729 1106 729 818 conicto
729 589 882 454 conicto
1035 320 1299 320 conicto
1663 320 1882 572 conicto
2102 825 2102 1244 conicto
2102 1344 lineto
1667 1344 lineto
2539 1513 moveto
2539 0 lineto
2102 0 lineto
2102 384 lineto
1952 154 1729 45 conicto
1506 -64 1183 -64 conicto
774 -64 533 162 conicto
292 389 292 769 conicto
292 1213 592 1438 conicto
893 1664 1489 1664 conicto
2102 1664 lineto
2102 1712 lineto
2102 2025 1903 2196 conicto
1705 2368 1347 2368 conicto
1119 2368 903 2320 conicto
687 2272 487 2176 conicto
487 2560 lineto
727 2656 952 2704 conicto
1178 2752 1392 2752 conicto
1969 2752 2254 2444 conicto
2539 2137 2539 1513 conicto
end_ol grestore 
gsave 18.510842 15.366780 translate 0.035278 -0.035278 scale
start_ol
2373 2560 moveto
2373 2176 lineto
2188 2272 2001 2320 conicto
1815 2368 1625 2368 conicto
1199 2368 964 2099 conicto
729 1830 729 1344 conicto
729 858 964 589 conicto
1199 320 1625 320 conicto
1815 320 2001 368 conicto
2188 416 2373 512 conicto
2373 128 lineto
2190 32 1994 -16 conicto
1798 -64 1577 -64 conicto
976 -64 622 316 conicto
268 697 268 1344 conicto
268 2000 625 2376 conicto
983 2752 1606 2752 conicto
1808 2752 2000 2704 conicto
2192 2656 2373 2560 conicto
1756 0 moveto
1886 -151 1950 -278 conicto
2014 -406 2014 -523 conicto
2014 -739 1871 -849 conicto
1729 -960 1449 -960 conicto
1340 -960 1236 -944 conicto
1133 -929 1031 -898 conicto
1031 -576 lineto
1112 -610 1200 -625 conicto
1288 -640 1399 -640 conicto
1539 -640 1610 -583 conicto
1682 -527 1682 -419 conicto
1682 -348 1631 -246 conicto
1580 -144 1473 0 conicto
1756 0 lineto
end_ol grestore 
gsave 18.863010 15.366780 translate 0.035278 -0.035278 scale
start_ol
1667 1344 moveto
1137 1344 933 1225 conicto
729 1106 729 818 conicto
729 589 882 454 conicto
1035 320 1299 320 conicto
1663 320 1882 572 conicto
2102 825 2102 1244 conicto
2102 1344 lineto
1667 1344 lineto
2539 1513 moveto
2539 0 lineto
2102 0 lineto
2102 384 lineto
1952 154 1729 45 conicto
1506 -64 1183 -64 conicto
774 -64 533 162 conicto
292 389 292 769 conicto
292 1213 592 1438 conicto
893 1664 1489 1664 conicto
2102 1664 lineto
2102 1712 lineto
2102 2025 1903 2196 conicto
1705 2368 1347 2368 conicto
1119 2368 903 2320 conicto
687 2272 487 2176 conicto
487 2560 lineto
727 2656 952 2704 conicto
1178 2752 1392 2752 conicto
1969 2752 2254 2444 conicto
2539 2137 2539 1513 conicto
1402 3226 moveto
1266 3364 lineto
1214 3411 1174 3433 conicto
1135 3456 1105 3456 conicto
1014 3456 971 3365 conicto
929 3275 924 3072 conicto
627 3072 lineto
632 3409 753 3592 conicto
874 3776 1091 3776 conicto
1181 3776 1257 3740 conicto
1333 3705 1421 3622 conicto
1556 3484 lineto
1608 3437 1647 3414 conicto
1687 3392 1718 3392 conicto
1808 3392 1850 3482 conicto
1893 3573 1898 3776 conicto
2195 3776 lineto
2190 3439 2069 3255 conicto
1948 3072 1732 3072 conicto
1642 3072 1566 3107 conicto
1490 3143 1402 3226 conicto
end_ol grestore 
gsave 19.255139 15.366780 translate 0.035278 -0.035278 scale
start_ol
1489 2368 moveto
1138 2368 933 2094 conicto
729 1820 729 1344 conicto
729 868 932 594 conicto
1135 320 1489 320 conicto
1838 320 2042 595 conicto
2247 870 2247 1344 conicto
2247 1816 2042 2092 conicto
1838 2368 1489 2368 conicto
1489 2752 moveto
2059 2752 2384 2378 conicto
2710 2005 2710 1344 conicto
2710 685 2384 310 conicto
2059 -64 1489 -64 conicto
917 -64 592 310 conicto
268 685 268 1344 conicto
268 2005 592 2378 conicto
917 2752 1489 2752 conicto
end_ol grestore 
0.100000 slw
[] 0 sd
0 slj
1.000000 1.000000 1.000000 srgb
n 22.573038 7.686525 m 29.110538 7.686525 l 29.110538 11.186525 l 22.573038 11.186525 l ef
0.000000 0.000000 0.000000 srgb
n 22.573038 7.686525 m 29.110538 7.686525 l 29.110538 11.186525 l 22.573038 11.186525 l cp s
gsave 23.123038 8.830588 translate 0.035278 -0.035278 scale
start_ol
525 3520 moveto
2408 3520 lineto
2408 3136 lineto
964 3136 lineto
964 2300 lineto
1069 2334 1173 2351 conicto
1278 2368 1382 2368 conicto
1976 2368 2323 2040 conicto
2670 1712 2670 1152 conicto
2670 575 2313 255 conicto
1957 -64 1309 -64 conicto
1085 -64 853 -32 conicto
622 0 375 64 conicto
375 576 lineto
589 447 817 383 conicto
1045 320 1299 320 conicto
1710 320 1950 544 conicto
2190 768 2190 1152 conicto
2190 1536 1950 1760 conicto
1710 1984 1299 1984 conicto
1107 1984 916 1937 conicto
725 1891 525 1792 conicto
525 3520 lineto
end_ol grestore 
gsave 23.530158 8.830588 translate 0.035278 -0.035278 scale
start_ol
390 3712 moveto
770 3712 lineto
1126 3149 1303 2609 conicto
1480 2070 1480 1538 conicto
1480 1004 1303 462 conicto
1126 -79 770 -640 conicto
390 -640 lineto
706 -94 861 446 conicto
1017 987 1017 1538 conicto
1017 2090 861 2626 conicto
706 3163 390 3712 conicto
end_ol grestore 
gsave 23.779924 8.830588 translate 0.035278 -0.035278 scale
start_ol
end_ol grestore 
gsave 23.982231 8.830588 translate 0.035278 -0.035278 scale
start_ol
-14 3520 moveto
2985 3520 lineto
2985 3136 lineto
1727 3136 lineto
1727 0 lineto
1245 0 lineto
1245 3136 lineto
-14 3136 lineto
-14 3520 lineto
end_ol grestore 
gsave 24.279449 8.830588 translate 0.035278 -0.035278 scale
start_ol
2000 2304 moveto
1926 2337 1839 2352 conicto
1753 2368 1648 2368 conicto
1278 2368 1079 2127 conicto
881 1887 881 1437 conicto
881 0 lineto
442 0 lineto
442 2688 lineto
881 2688 lineto
881 2304 lineto
1019 2531 1240 2641 conicto
1461 2752 1777 2752 conicto
1822 2752 1876 2752 conicto
1931 2752 1998 2752 conicto
2000 2304 lineto
end_ol grestore 
gsave 24.541701 8.830588 translate 0.035278 -0.035278 scale
start_ol
1667 1344 moveto
1137 1344 933 1225 conicto
729 1106 729 818 conicto
729 589 882 454 conicto
1035 320 1299 320 conicto
1663 320 1882 572 conicto
2102 825 2102 1244 conicto
2102 1344 lineto
1667 1344 lineto
2539 1513 moveto
2539 0 lineto
2102 0 lineto
2102 384 lineto
1952 154 1729 45 conicto
1506 -64 1183 -64 conicto
774 -64 533 162 conicto
292 389 292 769 conicto
292 1213 592 1438 conicto
893 1664 1489 1664 conicto
2102 1664 lineto
2102 1712 lineto
2102 2025 1903 2196 conicto
1705 2368 1347 2368 conicto
1119 2368 903 2320 conicto
687 2272 487 2176 conicto
487 2560 lineto
727 2656 952 2704 conicto
1178 2752 1392 2752 conicto
1969 2752 2254 2444 conicto
2539 2137 2539 1513 conicto
end_ol grestore 
gsave 24.933830 8.830588 translate 0.035278 -0.035278 scale
start_ol
2670 1646 moveto
2670 0 lineto
2233 0 lineto
2233 1632 lineto
2233 2001 2085 2184 conicto
1938 2368 1644 2368 conicto
1290 2368 1085 2146 conicto
881 1925 881 1542 conicto
881 0 lineto
442 0 lineto
442 2688 lineto
881 2688 lineto
881 2304 lineto
1038 2529 1250 2640 conicto
1463 2752 1741 2752 conicto
2200 2752 2435 2471 conicto
2670 2191 2670 1646 conicto
end_ol grestore 
gsave 25.338444 8.830588 translate 0.035278 -0.035278 scale
start_ol
2154 2560 moveto
2154 2176 lineto
1969 2272 1769 2320 conicto
1570 2368 1356 2368 conicto
1030 2368 867 2269 conicto
705 2170 705 1972 conicto
705 1821 821 1735 conicto
938 1649 1290 1571 conicto
1439 1538 lineto
1905 1438 2101 1255 conicto
2297 1072 2297 744 conicto
2297 371 2003 153 conicto
1710 -64 1197 -64 conicto
984 -64 752 -16 conicto
521 32 264 128 conicto
264 576 lineto
506 448 741 384 conicto
976 320 1207 320 conicto
1516 320 1682 425 conicto
1848 531 1848 722 conicto
1848 900 1728 994 conicto
1608 1089 1202 1177 conicto
1050 1212 lineto
644 1298 463 1476 conicto
283 1654 283 1964 conicto
283 2341 549 2546 conicto
815 2752 1304 2752 conicto
1546 2752 1760 2704 conicto
1974 2656 2154 2560 conicto
end_ol grestore 
gsave 25.670629 8.830588 translate 0.035278 -0.035278 scale
start_ol
1805 3712 moveto
1805 3328 lineto
1387 3328 lineto
1152 3328 1060 3237 conicto
969 3147 969 2912 conicto
969 2688 lineto
1689 2688 lineto
1689 2368 lineto
969 2368 lineto
969 0 lineto
530 0 lineto
530 2368 lineto
112 2368 lineto
112 2688 lineto
530 2688 lineto
530 2864 lineto
530 3307 736 3509 conicto
943 3712 1392 3712 conicto
1805 3712 lineto
end_ol grestore 
gsave 25.895417 8.830588 translate 0.035278 -0.035278 scale
start_ol
1489 2368 moveto
1138 2368 933 2094 conicto
729 1820 729 1344 conicto
729 868 932 594 conicto
1135 320 1489 320 conicto
1838 320 2042 595 conicto
2247 870 2247 1344 conicto
2247 1816 2042 2092 conicto
1838 2368 1489 2368 conicto
1489 2752 moveto
2059 2752 2384 2378 conicto
2710 2005 2710 1344 conicto
2710 685 2384 310 conicto
2059 -64 1489 -64 conicto
917 -64 592 310 conicto
268 685 268 1344 conicto
268 2005 592 2378 conicto
917 2752 1489 2752 conicto
end_ol grestore 
gsave 26.287546 8.830588 translate 0.035278 -0.035278 scale
start_ol
2000 2304 moveto
1926 2337 1839 2352 conicto
1753 2368 1648 2368 conicto
1278 2368 1079 2127 conicto
881 1887 881 1437 conicto
881 0 lineto
442 0 lineto
442 2688 lineto
881 2688 lineto
881 2304 lineto
1019 2531 1240 2641 conicto
1461 2752 1777 2752 conicto
1822 2752 1876 2752 conicto
1931 2752 1998 2752 conicto
2000 2304 lineto
end_ol grestore 
gsave 26.539810 8.830588 translate 0.035278 -0.035278 scale
start_ol
2529 2204 moveto
2693 2485 2921 2618 conicto
3149 2752 3458 2752 conicto
3874 2752 4099 2464 conicto
4325 2177 4325 1646 conicto
4325 0 lineto
3886 0 lineto
3886 1632 lineto
3886 2006 3750 2187 conicto
3615 2368 3337 2368 conicto
2997 2368 2800 2146 conicto
2603 1925 2603 1542 conicto
2603 0 lineto
2164 0 lineto
2164 1632 lineto
2164 2008 2028 2188 conicto
1893 2368 1610 2368 conicto
1275 2368 1078 2145 conicto
881 1922 881 1542 conicto
881 0 lineto
442 0 lineto
442 2688 lineto
881 2688 lineto
881 2304 lineto
1031 2534 1240 2643 conicto
1449 2752 1736 2752 conicto
2026 2752 2229 2611 conicto
2432 2471 2529 2204 conicto
end_ol grestore 
gsave 27.161721 8.830588 translate 0.035278 -0.035278 scale
start_ol
1667 1344 moveto
1137 1344 933 1225 conicto
729 1106 729 818 conicto
729 589 882 454 conicto
1035 320 1299 320 conicto
1663 320 1882 572 conicto
2102 825 2102 1244 conicto
2102 1344 lineto
1667 1344 lineto
2539 1513 moveto
2539 0 lineto
2102 0 lineto
2102 384 lineto
1952 154 1729 45 conicto
1506 -64 1183 -64 conicto
774 -64 533 162 conicto
292 389 292 769 conicto
292 1213 592 1438 conicto
893 1664 1489 1664 conicto
2102 1664 lineto
2102 1712 lineto
2102 2025 1903 2196 conicto
1705 2368 1347 2368 conicto
1119 2368 903 2320 conicto
687 2272 487 2176 conicto
487 2560 lineto
727 2656 952 2704 conicto
1178 2752 1392 2752 conicto
1969 2752 2254 2444 conicto
2539 2137 2539 1513 conicto
end_ol grestore 
gsave 27.553850 8.830588 translate 0.035278 -0.035278 scale
start_ol
2209 2304 moveto
2209 3712 lineto
2646 3712 lineto
2646 0 lineto
2209 0 lineto
2209 384 lineto
2071 157 1861 46 conicto
1651 -64 1356 -64 conicto
874 -64 571 324 conicto
268 712 268 1344 conicto
268 1976 571 2364 conicto
874 2752 1356 2752 conicto
1651 2752 1861 2641 conicto
2071 2531 2209 2304 conicto
720 1344 moveto
720 865 918 592 conicto
1117 320 1463 320 conicto
1810 320 2009 592 conicto
2209 865 2209 1344 conicto
2209 1823 2009 2095 conicto
1810 2368 1463 2368 conicto
1117 2368 918 2095 conicto
720 1823 720 1344 conicto
end_ol grestore 
gsave 27.960969 8.830588 translate 0.035278 -0.035278 scale
start_ol
1667 1344 moveto
1137 1344 933 1225 conicto
729 1106 729 818 conicto
729 589 882 454 conicto
1035 320 1299 320 conicto
1663 320 1882 572 conicto
2102 825 2102 1244 conicto
2102 1344 lineto
1667 1344 lineto
2539 1513 moveto
2539 0 lineto
2102 0 lineto
2102 384 lineto
1952 154 1729 45 conicto
1506 -64 1183 -64 conicto
774 -64 533 162 conicto
292 389 292 769 conicto
292 1213 592 1438 conicto
893 1664 1489 1664 conicto
2102 1664 lineto
2102 1712 lineto
2102 2025 1903 2196 conicto
1705 2368 1347 2368 conicto
1119 2368 903 2320 conicto
687 2272 487 2176 conicto
487 2560 lineto
727 2656 952 2704 conicto
1178 2752 1392 2752 conicto
1969 2752 2254 2444 conicto
2539 2137 2539 1513 conicto
end_ol grestore 
gsave 28.353098 8.830588 translate 0.035278 -0.035278 scale
start_ol
end_ol grestore 
gsave 24.563038 9.630588 translate 0.035278 -0.035278 scale
start_ol
2209 2304 moveto
2209 3712 lineto
2646 3712 lineto
2646 0 lineto
2209 0 lineto
2209 384 lineto
2071 157 1861 46 conicto
1651 -64 1356 -64 conicto
874 -64 571 324 conicto
268 712 268 1344 conicto
268 1976 571 2364 conicto
874 2752 1356 2752 conicto
1651 2752 1861 2641 conicto
2071 2531 2209 2304 conicto
720 1344 moveto
720 865 918 592 conicto
1117 320 1463 320 conicto
1810 320 2009 592 conicto
2209 865 2209 1344 conicto
2209 1823 2009 2095 conicto
1810 2368 1463 2368 conicto
1117 2368 918 2095 conicto
720 1823 720 1344 conicto
end_ol grestore 
gsave 24.970158 9.630588 translate 0.035278 -0.035278 scale
start_ol
458 2688 moveto
895 2688 lineto
895 0 lineto
458 0 lineto
458 2688 lineto
458 3712 moveto
895 3712 lineto
895 3136 lineto
458 3136 lineto
458 3712 lineto
end_ol grestore 
gsave 25.147486 9.630588 translate 0.035278 -0.035278 scale
start_ol
2154 2560 moveto
2154 2176 lineto
1969 2272 1769 2320 conicto
1570 2368 1356 2368 conicto
1030 2368 867 2269 conicto
705 2170 705 1972 conicto
705 1821 821 1735 conicto
938 1649 1290 1571 conicto
1439 1538 lineto
1905 1438 2101 1255 conicto
2297 1072 2297 744 conicto
2297 371 2003 153 conicto
1710 -64 1197 -64 conicto
984 -64 752 -16 conicto
521 32 264 128 conicto
264 576 lineto
506 448 741 384 conicto
976 320 1207 320 conicto
1516 320 1682 425 conicto
1848 531 1848 722 conicto
1848 900 1728 994 conicto
1608 1089 1202 1177 conicto
1050 1212 lineto
644 1298 463 1476 conicto
283 1654 283 1964 conicto
283 2341 549 2546 conicto
815 2752 1304 2752 conicto
1546 2752 1760 2704 conicto
1974 2656 2154 2560 conicto
end_ol grestore 
gsave 25.479671 9.630588 translate 0.035278 -0.035278 scale
start_ol
2373 2560 moveto
2373 2176 lineto
2188 2272 2001 2320 conicto
1815 2368 1625 2368 conicto
1199 2368 964 2099 conicto
729 1830 729 1344 conicto
729 858 964 589 conicto
1199 320 1625 320 conicto
1815 320 2001 368 conicto
2188 416 2373 512 conicto
2373 128 lineto
2190 32 1994 -16 conicto
1798 -64 1577 -64 conicto
976 -64 622 316 conicto
268 697 268 1344 conicto
268 2000 625 2376 conicto
983 2752 1606 2752 conicto
1808 2752 2000 2704 conicto
2192 2656 2373 2560 conicto
end_ol grestore 
gsave 25.831840 9.630588 translate 0.035278 -0.035278 scale
start_ol
2000 2304 moveto
1926 2337 1839 2352 conicto
1753 2368 1648 2368 conicto
1278 2368 1079 2127 conicto
881 1887 881 1437 conicto
881 0 lineto
442 0 lineto
442 2688 lineto
881 2688 lineto
881 2304 lineto
1019 2531 1240 2641 conicto
1461 2752 1777 2752 conicto
1822 2752 1876 2752 conicto
1931 2752 1998 2752 conicto
2000 2304 lineto
end_ol grestore 
gsave 26.081606 9.630588 translate 0.035278 -0.035278 scale
start_ol
2734 1480 moveto
2734 1280 lineto
724 1280 lineto
753 811 996 565 conicto
1240 320 1674 320 conicto
1926 320 2162 384 conicto
2399 448 2632 576 conicto
2632 192 lineto
2397 67 2150 1 conicto
1903 -64 1648 -64 conicto
1012 -64 640 309 conicto
268 683 268 1320 conicto
268 1979 621 2365 conicto
974 2752 1572 2752 conicto
2109 2752 2421 2410 conicto
2734 2068 2734 1480 conicto
2297 1600 moveto
2292 1950 2096 2159 conicto
1900 2368 1577 2368 conicto
1212 2368 992 2166 conicto
772 1964 739 1597 conicto
2297 1600 lineto
end_ol grestore 
gsave 26.476232 9.630588 translate 0.035278 -0.035278 scale
start_ol
891 3456 moveto
891 2688 lineto
1791 2688 lineto
1791 2368 lineto
891 2368 lineto
891 902 lineto
891 572 980 478 conicto
1069 384 1342 384 conicto
1791 384 lineto
1791 0 lineto
1342 0 lineto
836 0 643 194 conicto
451 389 451 902 conicto
451 2368 lineto
131 2368 lineto
131 2688 lineto
451 2688 lineto
451 3456 lineto
891 3456 lineto
end_ol grestore 
gsave 26.725999 9.630588 translate 0.035278 -0.035278 scale
start_ol
1667 1344 moveto
1137 1344 933 1225 conicto
729 1106 729 818 conicto
729 589 882 454 conicto
1035 320 1299 320 conicto
1663 320 1882 572 conicto
2102 825 2102 1244 conicto
2102 1344 lineto
1667 1344 lineto
2539 1513 moveto
2539 0 lineto
2102 0 lineto
2102 384 lineto
1952 154 1729 45 conicto
1506 -64 1183 -64 conicto
774 -64 533 162 conicto
292 389 292 769 conicto
292 1213 592 1438 conicto
893 1664 1489 1664 conicto
2102 1664 lineto
2102 1712 lineto
2102 2025 1903 2196 conicto
1705 2368 1347 2368 conicto
1119 2368 903 2320 conicto
687 2272 487 2176 conicto
487 2560 lineto
727 2656 952 2704 conicto
1178 2752 1392 2752 conicto
1969 2752 2254 2444 conicto
2539 2137 2539 1513 conicto
end_ol grestore 
gsave 23.706788 10.430588 translate 0.035278 -0.035278 scale
start_ol
2209 2304 moveto
2209 3712 lineto
2646 3712 lineto
2646 0 lineto
2209 0 lineto
2209 384 lineto
2071 157 1861 46 conicto
1651 -64 1356 -64 conicto
874 -64 571 324 conicto
268 712 268 1344 conicto
268 1976 571 2364 conicto
874 2752 1356 2752 conicto
1651 2752 1861 2641 conicto
2071 2531 2209 2304 conicto
720 1344 moveto
720 865 918 592 conicto
1117 320 1463 320 conicto
1810 320 2009 592 conicto
2209 865 2209 1344 conicto
2209 1823 2009 2095 conicto
1810 2368 1463 2368 conicto
1117 2368 918 2095 conicto
720 1823 720 1344 conicto
end_ol grestore 
gsave 24.113908 10.430588 translate 0.035278 -0.035278 scale
start_ol
1489 2368 moveto
1138 2368 933 2094 conicto
729 1820 729 1344 conicto
729 868 932 594 conicto
1135 320 1489 320 conicto
1838 320 2042 595 conicto
2247 870 2247 1344 conicto
2247 1816 2042 2092 conicto
1838 2368 1489 2368 conicto
1489 2752 moveto
2059 2752 2384 2378 conicto
2710 2005 2710 1344 conicto
2710 685 2384 310 conicto
2059 -64 1489 -64 conicto
917 -64 592 310 conicto
268 685 268 1344 conicto
268 2005 592 2378 conicto
917 2752 1489 2752 conicto
end_ol grestore 
gsave 24.506037 10.430588 translate 0.035278 -0.035278 scale
start_ol
2154 2560 moveto
2154 2176 lineto
1969 2272 1769 2320 conicto
1570 2368 1356 2368 conicto
1030 2368 867 2269 conicto
705 2170 705 1972 conicto
705 1821 821 1735 conicto
938 1649 1290 1571 conicto
1439 1538 lineto
1905 1438 2101 1255 conicto
2297 1072 2297 744 conicto
2297 371 2003 153 conicto
1710 -64 1197 -64 conicto
984 -64 752 -16 conicto
521 32 264 128 conicto
264 576 lineto
506 448 741 384 conicto
976 320 1207 320 conicto
1516 320 1682 425 conicto
1848 531 1848 722 conicto
1848 900 1728 994 conicto
1608 1089 1202 1177 conicto
1050 1212 lineto
644 1298 463 1476 conicto
283 1654 283 1964 conicto
283 2341 549 2546 conicto
815 2752 1304 2752 conicto
1546 2752 1760 2704 conicto
1974 2656 2154 2560 conicto
end_ol grestore 
gsave 24.838221 10.430588 translate 0.035278 -0.035278 scale
start_ol
end_ol grestore 
gsave 25.040528 10.430588 translate 0.035278 -0.035278 scale
start_ol
2373 2560 moveto
2373 2176 lineto
2188 2272 2001 2320 conicto
1815 2368 1625 2368 conicto
1199 2368 964 2099 conicto
729 1830 729 1344 conicto
729 858 964 589 conicto
1199 320 1625 320 conicto
1815 320 2001 368 conicto
2188 416 2373 512 conicto
2373 128 lineto
2190 32 1994 -16 conicto
1798 -64 1577 -64 conicto
976 -64 622 316 conicto
268 697 268 1344 conicto
268 2000 625 2376 conicto
983 2752 1606 2752 conicto
1808 2752 2000 2704 conicto
2192 2656 2373 2560 conicto
end_ol grestore 
gsave 25.392697 10.430588 translate 0.035278 -0.035278 scale
start_ol
1489 2368 moveto
1138 2368 933 2094 conicto
729 1820 729 1344 conicto
729 868 932 594 conicto
1135 320 1489 320 conicto
1838 320 2042 595 conicto
2247 870 2247 1344 conicto
2247 1816 2042 2092 conicto
1838 2368 1489 2368 conicto
1489 2752 moveto
2059 2752 2384 2378 conicto
2710 2005 2710 1344 conicto
2710 685 2384 310 conicto
2059 -64 1489 -64 conicto
917 -64 592 310 conicto
268 685 268 1344 conicto
268 2005 592 2378 conicto
917 2752 1489 2752 conicto
end_ol grestore 
gsave 25.784826 10.430588 translate 0.035278 -0.035278 scale
start_ol
2154 2560 moveto
2154 2176 lineto
1969 2272 1769 2320 conicto
1570 2368 1356 2368 conicto
1030 2368 867 2269 conicto
705 2170 705 1972 conicto
705 1821 821 1735 conicto
938 1649 1290 1571 conicto
1439 1538 lineto
1905 1438 2101 1255 conicto
2297 1072 2297 744 conicto
2297 371 2003 153 conicto
1710 -64 1197 -64 conicto
984 -64 752 -16 conicto
521 32 264 128 conicto
264 576 lineto
506 448 741 384 conicto
976 320 1207 320 conicto
1516 320 1682 425 conicto
1848 531 1848 722 conicto
1848 900 1728 994 conicto
1608 1089 1202 1177 conicto
1050 1212 lineto
644 1298 463 1476 conicto
283 1654 283 1964 conicto
283 2341 549 2546 conicto
815 2752 1304 2752 conicto
1546 2752 1760 2704 conicto
1974 2656 2154 2560 conicto
end_ol grestore 
gsave 26.117010 10.430588 translate 0.035278 -0.035278 scale
start_ol
2154 2560 moveto
2154 2176 lineto
1969 2272 1769 2320 conicto
1570 2368 1356 2368 conicto
1030 2368 867 2269 conicto
705 2170 705 1972 conicto
705 1821 821 1735 conicto
938 1649 1290 1571 conicto
1439 1538 lineto
1905 1438 2101 1255 conicto
2297 1072 2297 744 conicto
2297 371 2003 153 conicto
1710 -64 1197 -64 conicto
984 -64 752 -16 conicto
521 32 264 128 conicto
264 576 lineto
506 448 741 384 conicto
976 320 1207 320 conicto
1516 320 1682 425 conicto
1848 531 1848 722 conicto
1848 900 1728 994 conicto
1608 1089 1202 1177 conicto
1050 1212 lineto
644 1298 463 1476 conicto
283 1654 283 1964 conicto
283 2341 549 2546 conicto
815 2752 1304 2752 conicto
1546 2752 1760 2704 conicto
1974 2656 2154 2560 conicto
end_ol grestore 
gsave 26.449195 10.430588 translate 0.035278 -0.035278 scale
start_ol
2734 1480 moveto
2734 1280 lineto
724 1280 lineto
753 811 996 565 conicto
1240 320 1674 320 conicto
1926 320 2162 384 conicto
2399 448 2632 576 conicto
2632 192 lineto
2397 67 2150 1 conicto
1903 -64 1648 -64 conicto
1012 -64 640 309 conicto
268 683 268 1320 conicto
268 1979 621 2365 conicto
974 2752 1572 2752 conicto
2109 2752 2421 2410 conicto
2734 2068 2734 1480 conicto
2297 1600 moveto
2292 1950 2096 2159 conicto
1900 2368 1577 2368 conicto
1212 2368 992 2166 conicto
772 1964 739 1597 conicto
2297 1600 lineto
end_ol grestore 
gsave 26.843821 10.430588 translate 0.035278 -0.035278 scale
start_ol
2670 1646 moveto
2670 0 lineto
2233 0 lineto
2233 1632 lineto
2233 2001 2085 2184 conicto
1938 2368 1644 2368 conicto
1290 2368 1085 2146 conicto
881 1925 881 1542 conicto
881 0 lineto
442 0 lineto
442 2688 lineto
881 2688 lineto
881 2304 lineto
1038 2529 1250 2640 conicto
1463 2752 1741 2752 conicto
2200 2752 2435 2471 conicto
2670 2191 2670 1646 conicto
end_ol grestore 
gsave 27.248435 10.430588 translate 0.035278 -0.035278 scale
start_ol
1489 2368 moveto
1138 2368 933 2094 conicto
729 1820 729 1344 conicto
729 868 932 594 conicto
1135 320 1489 320 conicto
1838 320 2042 595 conicto
2247 870 2247 1344 conicto
2247 1816 2042 2092 conicto
1838 2368 1489 2368 conicto
1489 2752 moveto
2059 2752 2384 2378 conicto
2710 2005 2710 1344 conicto
2710 685 2384 310 conicto
2059 -64 1489 -64 conicto
917 -64 592 310 conicto
268 685 268 1344 conicto
268 2005 592 2378 conicto
917 2752 1489 2752 conicto
end_ol grestore 
gsave 27.640564 10.430588 translate 0.035278 -0.035278 scale
start_ol
2154 2560 moveto
2154 2176 lineto
1969 2272 1769 2320 conicto
1570 2368 1356 2368 conicto
1030 2368 867 2269 conicto
705 2170 705 1972 conicto
705 1821 821 1735 conicto
938 1649 1290 1571 conicto
1439 1538 lineto
1905 1438 2101 1255 conicto
2297 1072 2297 744 conicto
2297 371 2003 153 conicto
1710 -64 1197 -64 conicto
984 -64 752 -16 conicto
521 32 264 128 conicto
264 576 lineto
506 448 741 384 conicto
976 320 1207 320 conicto
1516 320 1682 425 conicto
1848 531 1848 722 conicto
1848 900 1728 994 conicto
1608 1089 1202 1177 conicto
1050 1212 lineto
644 1298 463 1476 conicto
283 1654 283 1964 conicto
283 2341 549 2546 conicto
815 2752 1304 2752 conicto
1546 2752 1760 2704 conicto
1974 2656 2154 2560 conicto
end_ol grestore 
gsave 24.934288 13.290091 translate 0.035278 -0.035278 scale
start_ol
477 3520 moveto
1192 3520 lineto
2097 1148 lineto
3007 3520 lineto
3722 3520 lineto
3722 0 lineto
3254 0 lineto
3254 3095 lineto
2339 704 lineto
1857 704 lineto
943 3095 lineto
943 0 lineto
477 0 lineto
477 3520 lineto
end_ol grestore 
gsave 25.486267 13.290091 translate 0.035278 -0.035278 scale
start_ol
477 3520 moveto
2515 3520 lineto
2515 3136 lineto
957 3136 lineto
957 2112 lineto
2363 2112 lineto
2363 1728 lineto
957 1728 lineto
957 0 lineto
477 0 lineto
477 3520 lineto
end_ol grestore 
gsave 25.853418 13.290091 translate 0.035278 -0.035278 scale
start_ol
3133 3264 moveto
3133 2752 lineto
2891 2977 2616 3088 conicto
2342 3200 2033 3200 conicto
1425 3200 1102 2829 conicto
779 2459 779 1759 conicto
779 1061 1102 690 conicto
1425 320 2033 320 conicto
2342 320 2616 431 conicto
2891 543 3133 768 conicto
3133 256 lineto
2881 96 2599 16 conicto
2318 -64 2005 -64 conicto
1199 -64 736 424 conicto
273 913 273 1759 conicto
273 2607 736 3095 conicto
1199 3584 2005 3584 conicto
2323 3584 2604 3504 conicto
2886 3424 3133 3264 conicto
end_ol grestore 
gsave 26.300498 13.290091 translate 0.035278 -0.035278 scale
start_ol
3133 3264 moveto
3133 2752 lineto
2891 2977 2616 3088 conicto
2342 3200 2033 3200 conicto
1425 3200 1102 2829 conicto
779 2459 779 1759 conicto
779 1061 1102 690 conicto
1425 320 2033 320 conicto
2342 320 2616 431 conicto
2891 543 3133 768 conicto
3133 256 lineto
2881 96 2599 16 conicto
2318 -64 2005 -64 conicto
1199 -64 736 424 conicto
273 913 273 1759 conicto
273 2607 736 3095 conicto
1199 3584 2005 3584 conicto
2323 3584 2604 3504 conicto
2886 3424 3133 3264 conicto
end_ol grestore 
0.100000 slw
[] 0 sd
0 slc
n 10.268750 10.835676 m 10.268750 12.023466 l s
0.100000 slw
[] 0 sd
0 slj
n 10.018750 12.023466 m 10.268750 12.523466 l 10.518750 12.023466 l ef
n 10.018750 12.023466 m 10.268750 12.523466 l 10.518750 12.023466 l cp s
0.100000 slw
[] 0 sd
0 slc
n 10.274498 6.856643 m 10.273085 7.490770 l s
0.100000 slw
[] 0 sd
0 slj
n 10.023085 7.490213 m 10.271971 7.990769 l 10.523084 7.491327 l ef
n 10.023085 7.490213 m 10.271971 7.990769 l 10.523084 7.491327 l cp s
0.100000 slw
[] 0 sd
0 slc
n 25.855102 11.236418 m 25.861302 12.074588 l s
0.100000 slw
[] 0 sd
0 slj
n 25.611309 12.076438 m 25.865000 12.574575 l 26.111295 12.072739 l ef
n 25.611309 12.076438 m 25.865000 12.574575 l 26.111295 12.072739 l cp s
0.100000 slw
[] 0 sd
0 slc
n 17.874381 11.235777 m 17.874381 12.023466 l s
0.100000 slw
[] 0 sd
0 slj
n 17.624381 12.023466 m 17.874381 12.523466 l 18.124381 12.023466 l ef
n 17.624381 12.023466 m 17.874381 12.523466 l 18.124381 12.023466 l cp s
0.100000 slw
[] 0 sd
0 slj
0 slc
n 10.268750 16.169334 m 10.268750 16.600000 l 14.000000 16.600000 l 14.000000 6.549121 l 17.874381 6.549121 l 17.874381 7.086832 l s
0.100000 slw
[] 0 sd
0 slj
n 17.624381 7.086832 m 17.874381 7.586832 l 18.124381 7.086832 l ef
n 17.624381 7.086832 m 17.874381 7.586832 l 18.124381 7.086832 l cp s
0.100000 slw
[] 0 sd
0 slj
0 slc
n 17.874381 16.122718 m 17.874381 16.600000 l 21.800000 16.600000 l 21.800000 6.379787 l 25.841788 6.379787 l 25.841788 7.088005 l s
0.100000 slw
[] 0 sd
0 slj
n 25.591788 7.088005 m 25.841788 7.588005 l 26.091788 7.088005 l ef
n 25.591788 7.088005 m 25.841788 7.588005 l 26.091788 7.088005 l cp s
showpage
