%!PS-Adobe-3.0 EPSF-3.0
%%Creator: (MATLAB, The Mathworks, Inc. Version 9.8.0.1323502 \(R2020a\). Operating System: Linux)
%%Title: /home/leonardo/wcDiscriminantesVL.eps
%%CreationDate: 2020-10-22T14:57:45
%%Pages: (atend)
%%BoundingBox:     0     0   773   554
%%LanguageLevel: 3
%%EndComments
%%BeginProlog
%%BeginResource: procset (Apache XML Graphics Std ProcSet) 1.2 0
%%Version: 1.2 0
%%Copyright: (Copyright 2001-2003,2010 The Apache Software Foundation. License terms: http://www.apache.org/licenses/LICENSE-2.0)
/bd{bind def}bind def
/ld{load def}bd
/GR/grestore ld
/GS/gsave ld
/RM/rmoveto ld
/C/curveto ld
/t/show ld
/L/lineto ld
/ML/setmiterlimit ld
/CT/concat ld
/f/fill ld
/N/newpath ld
/S/stroke ld
/CC/setcmykcolor ld
/A/ashow ld
/cp/closepath ld
/RC/setrgbcolor ld
/LJ/setlinejoin ld
/GC/setgray ld
/LW/setlinewidth ld
/M/moveto ld
/re {4 2 roll M
1 index 0 rlineto
0 exch rlineto
neg 0 rlineto
cp } bd
/_ctm matrix def
/_tm matrix def
/BT { _ctm currentmatrix pop matrix _tm copy pop 0 0 moveto } bd
/ET { _ctm setmatrix } bd
/iTm { _ctm setmatrix _tm concat } bd
/Tm { _tm astore pop iTm 0 0 moveto } bd
/ux 0.0 def
/uy 0.0 def
/F {
  /Tp exch def
  /Tf exch def
  Tf findfont Tp scalefont setfont
  /cf Tf def  /cs Tp def
} bd
/ULS {currentpoint /uy exch def /ux exch def} bd
/ULE {
  /Tcx currentpoint pop def
  gsave
  newpath
  cf findfont cs scalefont dup
  /FontMatrix get 0 get /Ts exch def /FontInfo get dup
  /UnderlinePosition get Ts mul /To exch def
  /UnderlineThickness get Ts mul /Tt exch def
  ux uy To add moveto  Tcx uy To add lineto
  Tt setlinewidth stroke
  grestore
} bd
/OLE {
  /Tcx currentpoint pop def
  gsave
  newpath
  cf findfont cs scalefont dup
  /FontMatrix get 0 get /Ts exch def /FontInfo get dup
  /UnderlinePosition get Ts mul /To exch def
  /UnderlineThickness get Ts mul /Tt exch def
  ux uy To add cs add moveto Tcx uy To add cs add lineto
  Tt setlinewidth stroke
  grestore
} bd
/SOE {
  /Tcx currentpoint pop def
  gsave
  newpath
  cf findfont cs scalefont dup
  /FontMatrix get 0 get /Ts exch def /FontInfo get dup
  /UnderlinePosition get Ts mul /To exch def
  /UnderlineThickness get Ts mul /Tt exch def
  ux uy To add cs 10 mul 26 idiv add moveto Tcx uy To add cs 10 mul 26 idiv add lineto
  Tt setlinewidth stroke
  grestore
} bd
/QT {
/Y22 exch store
/X22 exch store
/Y21 exch store
/X21 exch store
currentpoint
/Y21 load 2 mul add 3 div exch
/X21 load 2 mul add 3 div exch
/X21 load 2 mul /X22 load add 3 div
/Y21 load 2 mul /Y22 load add 3 div
/X22 load /Y22 load curveto
} bd
/SSPD {
dup length /d exch dict def
{
/v exch def
/k exch def
currentpagedevice k known {
/cpdv currentpagedevice k get def
v cpdv ne {
/upd false def
/nullv v type /nulltype eq def
/nullcpdv cpdv type /nulltype eq def
nullv nullcpdv or
{
/upd true def
} {
/sametype v type cpdv type eq def
sametype {
v type /arraytype eq {
/vlen v length def
/cpdvlen cpdv length def
vlen cpdvlen eq {
0 1 vlen 1 sub {
/i exch def
/obj v i get def
/cpdobj cpdv i get def
obj cpdobj ne {
/upd true def
exit
} if
} for
} {
/upd true def
} ifelse
} {
v type /dicttype eq {
v {
/dv exch def
/dk exch def
/cpddv cpdv dk get def
dv cpddv ne {
/upd true def
exit
} if
} forall
} {
/upd true def
} ifelse
} ifelse
} if
} ifelse
upd true eq {
d k v put
} if
} if
} if
} forall
d length 0 gt {
d setpagedevice
} if
} bd
/RE { % /NewFontName [NewEncodingArray] /FontName RE -
  findfont dup length dict begin
  {
    1 index /FID ne
    {def} {pop pop} ifelse
  } forall
  /Encoding exch def
  /FontName 1 index def
  currentdict definefont pop
  end
} bind def
%%EndResource
%%BeginResource: procset (Apache XML Graphics EPS ProcSet) 1.0 0
%%Version: 1.0 0
%%Copyright: (Copyright 2002-2003 The Apache Software Foundation. License terms: http://www.apache.org/licenses/LICENSE-2.0)
/BeginEPSF { %def
/b4_Inc_state save def         % Save state for cleanup
/dict_count countdictstack def % Count objects on dict stack
/op_count count 1 sub def      % Count objects on operand stack
userdict begin                 % Push userdict on dict stack
/showpage { } def              % Redefine showpage, { } = null proc
0 setgray 0 setlinecap         % Prepare graphics state
1 setlinewidth 0 setlinejoin
10 setmiterlimit [ ] 0 setdash newpath
/languagelevel where           % If level not equal to 1 then
{pop languagelevel             % set strokeadjust and
1 ne                           % overprint to their defaults.
{false setstrokeadjust false setoverprint
} if
} if
} bd
/EndEPSF { %def
count op_count sub {pop} repeat            % Clean up stacks
countdictstack dict_count sub {end} repeat
b4_Inc_state restore
} bd
%%EndResource
%FOPBeginFontDict
%%IncludeResource: font Courier-Oblique
%%IncludeResource: font Courier-BoldOblique
%%IncludeResource: font Courier-Bold
%%IncludeResource: font ZapfDingbats
%%IncludeResource: font Symbol
%%IncludeResource: font Helvetica
%%IncludeResource: font Helvetica-Oblique
%%IncludeResource: font Helvetica-Bold
%%IncludeResource: font Helvetica-BoldOblique
%%IncludeResource: font Times-Roman
%%IncludeResource: font Times-Italic
%%IncludeResource: font Times-Bold
%%IncludeResource: font Times-BoldItalic
%%IncludeResource: font Courier
%FOPEndFontDict
%%BeginResource: encoding WinAnsiEncoding
/WinAnsiEncoding [
/.notdef /.notdef /.notdef /.notdef /.notdef
/.notdef /.notdef /.notdef /.notdef /.notdef
/.notdef /.notdef /.notdef /.notdef /.notdef
/.notdef /.notdef /.notdef /.notdef /.notdef
/.notdef /.notdef /.notdef /.notdef /.notdef
/.notdef /.notdef /.notdef /.notdef /.notdef
/.notdef /.notdef /space /exclam /quotedbl
/numbersign /dollar /percent /ampersand /quotesingle
/parenleft /parenright /asterisk /plus /comma
/hyphen /period /slash /zero /one
/two /three /four /five /six
/seven /eight /nine /colon /semicolon
/less /equal /greater /question /at
/A /B /C /D /E
/F /G /H /I /J
/K /L /M /N /O
/P /Q /R /S /T
/U /V /W /X /Y
/Z /bracketleft /backslash /bracketright /asciicircum
/underscore /quoteleft /a /b /c
/d /e /f /g /h
/i /j /k /l /m
/n /o /p /q /r
/s /t /u /v /w
/x /y /z /braceleft /bar
/braceright /asciitilde /bullet /Euro /bullet
/quotesinglbase /florin /quotedblbase /ellipsis /dagger
/daggerdbl /circumflex /perthousand /Scaron /guilsinglleft
/OE /bullet /Zcaron /bullet /bullet
/quoteleft /quoteright /quotedblleft /quotedblright /bullet
/endash /emdash /asciitilde /trademark /scaron
/guilsinglright /oe /bullet /zcaron /Ydieresis
/space /exclamdown /cent /sterling /currency
/yen /brokenbar /section /dieresis /copyright
/ordfeminine /guillemotleft /logicalnot /sfthyphen /registered
/macron /degree /plusminus /twosuperior /threesuperior
/acute /mu /paragraph /middot /cedilla
/onesuperior /ordmasculine /guillemotright /onequarter /onehalf
/threequarters /questiondown /Agrave /Aacute /Acircumflex
/Atilde /Adieresis /Aring /AE /Ccedilla
/Egrave /Eacute /Ecircumflex /Edieresis /Igrave
/Iacute /Icircumflex /Idieresis /Eth /Ntilde
/Ograve /Oacute /Ocircumflex /Otilde /Odieresis
/multiply /Oslash /Ugrave /Uacute /Ucircumflex
/Udieresis /Yacute /Thorn /germandbls /agrave
/aacute /acircumflex /atilde /adieresis /aring
/ae /ccedilla /egrave /eacute /ecircumflex
/edieresis /igrave /iacute /icircumflex /idieresis
/eth /ntilde /ograve /oacute /ocircumflex
/otilde /odieresis /divide /oslash /ugrave
/uacute /ucircumflex /udieresis /yacute /thorn
/ydieresis
] def
%%EndResource
%FOPBeginFontReencode
/Courier-Oblique findfont
dup length dict begin
  {1 index /FID ne {def} {pop pop} ifelse} forall
  /Encoding WinAnsiEncoding def
  currentdict
end
/Courier-Oblique exch definefont pop
/Courier-BoldOblique findfont
dup length dict begin
  {1 index /FID ne {def} {pop pop} ifelse} forall
  /Encoding WinAnsiEncoding def
  currentdict
end
/Courier-BoldOblique exch definefont pop
/Courier-Bold findfont
dup length dict begin
  {1 index /FID ne {def} {pop pop} ifelse} forall
  /Encoding WinAnsiEncoding def
  currentdict
end
/Courier-Bold exch definefont pop
/Helvetica findfont
dup length dict begin
  {1 index /FID ne {def} {pop pop} ifelse} forall
  /Encoding WinAnsiEncoding def
  currentdict
end
/Helvetica exch definefont pop
/Helvetica-Oblique findfont
dup length dict begin
  {1 index /FID ne {def} {pop pop} ifelse} forall
  /Encoding WinAnsiEncoding def
  currentdict
end
/Helvetica-Oblique exch definefont pop
/Helvetica-Bold findfont
dup length dict begin
  {1 index /FID ne {def} {pop pop} ifelse} forall
  /Encoding WinAnsiEncoding def
  currentdict
end
/Helvetica-Bold exch definefont pop
/Helvetica-BoldOblique findfont
dup length dict begin
  {1 index /FID ne {def} {pop pop} ifelse} forall
  /Encoding WinAnsiEncoding def
  currentdict
end
/Helvetica-BoldOblique exch definefont pop
/Times-Roman findfont
dup length dict begin
  {1 index /FID ne {def} {pop pop} ifelse} forall
  /Encoding WinAnsiEncoding def
  currentdict
end
/Times-Roman exch definefont pop
/Times-Italic findfont
dup length dict begin
  {1 index /FID ne {def} {pop pop} ifelse} forall
  /Encoding WinAnsiEncoding def
  currentdict
end
/Times-Italic exch definefont pop
/Times-Bold findfont
dup length dict begin
  {1 index /FID ne {def} {pop pop} ifelse} forall
  /Encoding WinAnsiEncoding def
  currentdict
end
/Times-Bold exch definefont pop
/Times-BoldItalic findfont
dup length dict begin
  {1 index /FID ne {def} {pop pop} ifelse} forall
  /Encoding WinAnsiEncoding def
  currentdict
end
/Times-BoldItalic exch definefont pop
/Courier findfont
dup length dict begin
  {1 index /FID ne {def} {pop pop} ifelse} forall
  /Encoding WinAnsiEncoding def
  currentdict
end
/Courier exch definefont pop
%FOPEndFontReencode
%%EndProlog
%%Page: 1 1
%%PageBoundingBox: 0 0 773 554
%%BeginPageSetup
[1 0 0 -1 0 554] CT
%%EndPageSetup
GS
[0.71287 0 0 0.71287 0 0.099] CT
1 GC
N
0 0 1084 777 re
f
GR
GS
[0.71287 0 0 0.71287 0 0.099] CT
1 GC
N
0 0 1084 777 re
f
GR
GS
[0.71287 0 0 0.71287 0 0.099] CT
1 GC
N
0 777 M
1084 777 L
1084 0 L
0 0 L
cp
f
GR
GS
[0.71287 0 0 0.71287 386.53302 273.31432] CT
0.851 0.325 0.098 RC
/Helvetica 64 F
GS
[1 0 0 1 0 0] CT
-322.5 22 moveto 
1 -1 scale
(Airway_compromise) t 
GR
GR
GS
[0.71287 0 0 0.71287 440.51536 321.95624] CT
0.851 0.325 0.098 RC
/Helvetica 64 F
GS
[1 0 0 1 0 0] CT
-353 22 moveto 
1 -1 scale
(Inadequate_breathing) t 
GR
GR
GS
[0.71287 0 0 0.71287 345.92113 243.25705] CT
0.851 0.325 0.098 RC
/Helvetica 57 F
GS
[1 0 0 1 0 0] CT
-86 19.5 moveto 
1 -1 scale
(Shock) t 
GR
GR
GS
[0.71287 0 0 0.71287 364.99103 199.04067] CT
0.851 0.325 0.098 RC
/Helvetica 54 F
GS
[1 0 0 1 0 0] CT
-166 19 moveto 
1 -1 scale
(Severe_pain) t 
GR
GR
GS
[0.71287 0 0 0.71287 402.15801 380.54994] CT
0.851 0.325 0.098 RC
/Helvetica 52 F
GS
[1 0 0 1 0 0] CT
-115.5 18 moveto 
1 -1 scale
(Very_hot) t 
GR
GR
GS
[0.71287 0 0 0.71287 405.9659 141.82567] CT
0.263 GC
/Helvetica 51 F
GS
[1 0 0 1 0 0] CT
-304 17.5 moveto 
1 -1 scale
(Altered_conscious_level) t 
GR
GR
GS
[0.71287 0 0 0.71287 348.67594 428.06239] CT
0.267 GC
/Helvetica 46 F
GS
[1 0 0 1 0 0] CT
-222.5 16 moveto 
1 -1 scale
(Unresponsive_child) t 
GR
GR
GS
[0.71287 0 0 0.71287 247.86832 380.93552] CT
0.267 GC
/Helvetica 38 F
GS
[1 0 0 1 0 0] CT
-90 13.5 moveto 
1 -1 scale
(Hot_baby) t 
GR
GR
GS
[0.71287 0 0 0.71287 343.74606 101.61462] CT
0.271 GC
/Helvetica 36 F
GS
[1 0 0 1 0 0] CT
-148 12.5 moveto 
1 -1 scale
(Very_low_SpO_2) t 
GR
GR
GS
[0.71287 0 0 0.71287 319.23377 460.29271] CT
0.275 GC
/Helvetica 33 F
GS
[1 0 0 1 0 0] CT
-175.5 11.5 moveto 
1 -1 scale
(New_abnormal_pulse) t 
GR
GR
GS
[0.71287 0 0 0.71287 346.72035 56.43418] CT
0.275 GC
/Helvetica 33 F
GS
[1 0 0 1 0 0] CT
-388 11.5 moveto 
1 -1 scale
(New_neurological_deficit_less_than_24_hrs_old) t 
GR
GR
GS
[0.71287 0 0 0.71287 608.45603 235.84513] CT
0.278 GC
/Helvetica 33 F
GS
[1 0 0 1 0 0] CT
-164 11.5 moveto 
1 -1 scale
(Non-blanching_rash) t 
GR
GR
GS
[0.71287 0 0 0.71287 225.40089 227.93398] CT
0.282 GC
/Helvetica 33 F
GS
[1 0 0 1 0 0] CT
-65.5 11.5 moveto 
1 -1 scale
(Purpura) t 
GR
GR
GS
[0.71287 0 0 0.71287 131.06954 194.57805] CT
0.282 GC
/Helvetica 32 F
GS
[1 0 0 1 0 0] CT
-130.5 11 moveto 
1 -1 scale
(Currently_fitting) t 
GR
GR
GS
[0.71287 0 0 0.71287 344.43574 496.85682] CT
0.286 GC
/Helvetica 32 F
GS
[1 0 0 1 0 0] CT
-240 11 moveto 
1 -1 scale
(Exsanguinating_haemorrhage) t 
GR
GR
GS
[0.71287 0 0 0.71287 293.88833 526.84349] CT
0.29 GC
/Helvetica 32 F
GS
[1 0 0 1 0 0] CT
-287 11 moveto 
1 -1 scale
(Uncontrollable_major_haemorrhage) t 
GR
GR
GS
[0.71287 0 0 0.71287 599.30222 205.75156] CT
0.29 GC
/Helvetica 28 F
GS
[1 0 0 1 0 0] CT
-169.5 9.5 moveto 
1 -1 scale
(Acutely_short_of_breath) t 
GR
GR
GS
[0.71287 0 0 0.71287 526.51455 97.49755] CT
0.294 GC
/Helvetica 28 F
GS
[1 0 0 1 0 0] CT
-108.5 9.5 moveto 
1 -1 scale
(Hypoglycaemia) t 
GR
GR
GS
[0.71287 0 0 0.71287 351.6281 175.15222] CT
0.298 GC
/Helvetica 28 F
GS
[1 0 0 1 0 0] CT
-49.5 9.5 moveto 
1 -1 scale
(Shock_) t 
GR
GR
GS
[0.71287 0 0 0.71287 153.73708 164.82522] CT
0.298 GC
/Helvetica 26 F
GS
[1 0 0 1 0 0] CT
-213 9 moveto 
1 -1 scale
(Significant_mechanism_of_injury) t 
GR
GR
GS
[0.71287 0 0 0.71287 484.27832 254.1169] CT
0.302 GC
/Helvetica 24 F
GS
[1 0 0 1 0 0] CT
-27 8.5 moveto 
1 -1 scale
(Cold) t 
GR
GR
GS
[0.71287 0 0 0.71287 182.65585 348.52083] CT
0.302 GC
/Helvetica 24 F
GS
[1 0 0 1 0 0] CT
-123 8.5 moveto 
1 -1 scale
(Signs_of_meningism) t 
GR
GR
GS
[0.71287 0 0 0.71287 446.09676 227.55252] CT
0.306 GC
/Helvetica 24 F
GS
[1 0 0 1 0 0] CT
-40.5 8.5 moveto 
1 -1 scale
(Stridor) t 
GR
GR
GS
[0.71287 0 0 0.71287 640.97787 356.41711] CT
0.31 GC
/Helvetica 22 F
GS
[1 0 0 1 0 0] CT
-179.5 7.5 moveto 
1 -1 scale
(Responds_to_voice_or_pain_only) t 
GR
GR
GS
[0.71287 0 0 0.71287 511.84165 174.72775] CT
0.31 GC
/Helvetica 22 F
GS
[1 0 0 1 0 0] CT
-75 7.5 moveto 
1 -1 scale
(Unresponsive) t 
GR
GR
GS
[0.71287 0 0 0.71287 335.74022 78.70755] CT
0.314 GC
/Helvetica 18 F
GS
[1 0 0 1 0 0] CT
-114.5 6 moveto 
1 -1 scale
(Fails_to_react_to_parents) t 
GR
GR
GS
[0.71287 0 0 0.71287 575.06538 471.31772] CT
0.318 GC
/Helvetica 18 F
GS
[1 0 0 1 0 0] CT
-153 6 moveto 
1 -1 scale
(History_of_overdose_or_poisoning) t 
GR
GR
GS
[0.71287 0 0 0.71287 634.63817 392.70987] CT
0.318 GC
/Helvetica 18 F
GS
[1 0 0 1 0 0] CT
-168 6 moveto 
1 -1 scale
(Known_or_likely_immunosuppression) t 
GR
GR
GS
[0.71287 0 0 0.71287 659.56665 266.8625] CT
0.322 GC
/Helvetica 16 F
GS
[1 0 0 1 0 0] CT
-52 5.5 moveto 
1 -1 scale
(Cardiac_pain) t 
GR
GR
GS
[0.71287 0 0 0.71287 323.66986 355.84908] CT
0.325 GC
/Helvetica 16 F
GS
[1 0 0 1 0 0] CT
-60 5.5 moveto 
1 -1 scale
(Facial_oedema) t 
GR
GR
GS
[0.71287 0 0 0.71287 85.40949 215.89538] CT
0.325 GC
/Helvetica 16 F
GS
[1 0 0 1 0 0] CT
-117 5.5 moveto 
1 -1 scale
(Significant_history_of_allergy) t 
GR
GR
GS
[0.71287 0 0 0.71287 627.77156 416.17766] CT
0.329 GC
/Helvetica 16 F
GS
[1 0 0 1 0 0] CT
-115.5 5.5 moveto 
1 -1 scale
(Unable_to_talk_in_sentences) t 
GR
GR
GS
[0.71287 0 0 0.71287 548.26892 296.79419] CT
0.333 GC
/Helvetica 13 F
GS
[1 0 0 1 0 0] CT
-27.5 4.5 moveto 
1 -1 scale
(Drooling) t 
GR
GR
GS
[0.71287 0 0 0.71287 438.64094 161.99176] CT
0.333 GC
/Helvetica 13 F
GS
[1 0 0 1 0 0] CT
-22 4.5 moveto 
1 -1 scale
(Floppy) t 
GR
GR
GS
[0.71287 0 0 0.71287 545.05725 374.95974] CT
0.337 GC
/Helvetica 13 F
GS
[1 0 0 1 0 0] CT
-54 4.5 moveto 
1 -1 scale
(Hypoglycaemia_) t 
GR
GR
GS
[0.71287 0 0 0.71287 120.20324 247.7179] CT
0.337 GC
/Helvetica 13 F
GS
[1 0 0 1 0 0] CT
-77.5 4.5 moveto 
1 -1 scale
(Oedema_of_the_tongue) t 
GR
GR
GS
[0.71287 0 0 0.71287 578.17901 442.69692] CT
0.341 GC
/Helvetica 13 F
GS
[1 0 0 1 0 0] CT
-65.5 4.5 moveto 
1 -1 scale
(Severe_pain_or_itch) t 
GR
GR
GS
[0.71287 0 0 0.71287 75.37726 292.2747] CT
0.345 GC
/Helvetica 13 F
GS
[1 0 0 1 0 0] CT
-99 4.5 moveto 
1 -1 scale
(Significant_respiratory_history) t 
GR
GR
GS
[0.71287 0 0 0.71287 298.35259 403.24486] CT
0.345 GC
/Helvetica 13 F
GS
[1 0 0 1 0 0] CT
-70 4.5 moveto 
1 -1 scale
(Signs_of_severe_pain) t 
GR
GR
GS
[0.71287 0 0 0.71287 150.94537 324.03794] CT
0.349 GC
/Helvetica 13 F
GS
[1 0 0 1 0 0] CT
-49 4.5 moveto 
1 -1 scale
(Very_low_PEFR) t 
GR
GR
GS
[0.71287 0 0 0.71287 494.76615 117.25715] CT
0.353 GC
/Helvetica 10 F
GS
[1 0 0 1 0 0] CT
-68 3.5 moveto 
1 -1 scale
(Acute_chemical_eye_injury) t 
GR
GR
GS
[0.71287 0 0 0.71287 429.10606 354.98843] CT
0.353 GC
/Helvetica 10 F
GS
[1 0 0 1 0 0] CT
-77 3.5 moveto 
1 -1 scale
(Acute_complete_loss_of_vision) t 
GR
GR
GS
[0.71287 0 0 0.71287 127.04222 365.07401] CT
0.357 GC
/Helvetica 10 F
GS
[1 0 0 1 0 0] CT
-62 3.5 moveto 
1 -1 scale
(Acute_onset_after_injury) t 
GR
GR
GS
[0.71287 0 0 0.71287 393.09449 296.5424] CT
0.361 GC
/Helvetica 10 F
GS
[1 0 0 1 0 0] CT
-28 3.5 moveto 
1 -1 scale
(Exhaustion) t 
GR
GR
GS
[0.71287 0 0 0.71287 200.50504 403.97797] CT
0.361 GC
/Helvetica 10 F
GS
[1 0 0 1 0 0] CT
-53.5 3.5 moveto 
1 -1 scale
(Heavy_PV_blood_loss) t 
GR
GR
GS
[0.71287 0 0 0.71287 121.53707 260.42647] CT
0.365 GC
/Helvetica 10 F
GS
[1 0 0 1 0 0] CT
-59.5 3.5 moveto 
1 -1 scale
(High_lethality_chemical) t 
GR
GR
GS
[0.71287 0 0 0.71287 116.82718 149.94491] CT
0.369 GC
/Helvetica 10 F
GS
[1 0 0 1 0 0] CT
-72 3.5 moveto 
1 -1 scale
(High_risk_of_harm_to_others) t 
GR
GR
GS
[0.71287 0 0 0.71287 121.26714 232.48512] CT
0.369 GC
/Helvetica 10 F
GS
[1 0 0 1 0 0] CT
-57 3.5 moveto 
1 -1 scale
(High_risk_of_self-harm) t 
GR
GR
GS
[0.71287 0 0 0.71287 608.27868 189.44128] CT
0.373 GC
/Helvetica 10 F
GS
[1 0 0 1 0 0] CT
-90 3.5 moveto 
1 -1 scale
(Known_or_likely_immunosupression) t 
GR
GR
GS
[0.71287 0 0 0.71287 653.17669 117.67961] CT
0.373 GC
/Helvetica 10 F
GS
[1 0 0 1 0 0] CT
-122.5 3.5 moveto 
1 -1 scale
(PV_blood_loss_and_20_weeks_pregnant_or_more) t 
GR
GR
GS
[0.71287 0 0 0.71287 156.74146 79.5956] CT
0.376 GC
/Helvetica 10 F
GS
[1 0 0 1 0 0] CT
-87.5 3.5 moveto 
1 -1 scale
(Passing_fresh_or_altered_blood_PR) t 
GR
GR
GS
[0.71287 0 0 0.71287 684.1403 285.25868] CT
0.38 GC
/Helvetica 10 F
GS
[1 0 0 1 0 0] CT
-57.5 3.5 moveto 
1 -1 scale
(Penetrating_eye_injury) t 
GR
GR
GS
[0.71287 0 0 0.71287 590.48179 428.595] CT
0.38 GC
/Helvetica 10 F
GS
[1 0 0 1 0 0] CT
-61.5 3.5 moveto 
1 -1 scale
(Special_risk_of_infection) t 
GR
GR
GS
[0.71287 0 0 0.71287 562.22986 458.69771] CT
0.384 GC
/Helvetica 10 F
GS
[1 0 0 1 0 0] CT
-55 3.5 moveto 
1 -1 scale
(Vascular_compromise) t 
GR
GR
GS
[0.71287 0 0 0.71287 401.52533 345.10069] CT
0.388 GC
/Helvetica 10 F
GS
[1 0 0 1 0 0] CT
-39 3.5 moveto 
1 -1 scale
(Vomiting_blood) t 
GR
GR
GS
[0.71287 0 0 0.71287 480.60205 295.11899] CT
0.388 GC
/Helvetica 6 F
GS
[1 0 0 1 0 0] CT
-24.5 2 moveto 
1 -1 scale
(Abdominal_pain) t 
GR
GR
GS
[0.71287 0 0 0.71287 266.89414 257.8243] CT
0.392 GC
/Helvetica 6 F
GS
[1 0 0 1 0 0] CT
-20 2 moveto 
1 -1 scale
(Abrupt_onset) t 
GR
GR
GS
[0.71287 0 0 0.71287 415.59175 178.60251] CT
0.396 GC
/Helvetica 6 F
GS
[1 0 0 1 0 0] CT
-33 2 moveto 
1 -1 scale
(Age_25_years_or_less) t 
GR
GR
GS
[0.71287 0 0 0.71287 226.42458 295.25374] CT
0.396 GC
/Helvetica 6 F
GS
[1 0 0 1 0 0] CT
-43 2 moveto 
1 -1 scale
(Altered_consciousness_level) t 
GR
GR
GS
[0.71287 0 0 0.71287 366.78426 161.27768] CT
0.4 GC
/Helvetica 6 F
GS
[1 0 0 1 0 0] CT
-18.5 2 moveto 
1 -1 scale
(Critical_skin) t 
GR
GR
GS
[0.71287 0 0 0.71287 440.38839 241.37302] CT
0.4 GC
/Helvetica 6 F
GS
[1 0 0 1 0 0] CT
-43 2 moveto 
1 -1 scale
(Distal_vascular_compromise) t 
GR
GR
GS
[0.71287 0 0 0.71287 336.27252 221.40111] CT
0.404 GC
/Helvetica 6 F
GS
[1 0 0 1 0 0] CT
-39 2 moveto 
1 -1 scale
(Externalisation_of_organs) t 
GR
GR
GS
[0.71287 0 0 0.71287 490.62076 345.99084] CT
0.408 GC
/Helvetica 6 F
GS
[1 0 0 1 0 0] CT
-21 2 moveto 
1 -1 scale
(High_lethality) t 
GR
GR
GS
[0.71287 0 0 0.71287 460.01589 403.42234] CT
0.408 GC
/Helvetica 6 F
GS
[1 0 0 1 0 0] CT
-44 2 moveto 
1 -1 scale
(High_lethality_envenomation) t 
GR
GR
GS
[0.71287 0 0 0.71287 339.14661 445.60057] CT
0.412 GC
/Helvetica 6 F
GS
[1 0 0 1 0 0] CT
-39.5 2 moveto 
1 -1 scale
(High_risk_of_further_harm) t 
GR
GR
GS
[0.71287 0 0 0.71287 317.22623 414.21461] CT
0.416 GC
/Helvetica 6 F
GS
[1 0 0 1 0 0] CT
-46 2 moveto 
1 -1 scale
(High_risk_of_further_self-harm) t 
GR
GR
GS
[0.71287 0 0 0.71287 223.3179 256.08837] CT
0.416 GC
/Helvetica 6 F
GS
[1 0 0 1 0 0] CT
-25.5 2 moveto 
1 -1 scale
(History_of_fitting) t 
GR
GR
GS
[0.71287 0 0 0.71287 667.03426 180.87658] CT
0.42 GC
/Helvetica 6 F
GS
[1 0 0 1 0 0] CT
-44.5 2 moveto 
1 -1 scale
(Hyperglycaemia_with_ketosis) t 
GR
GR
GS
[0.71287 0 0 0.71287 401.62532 406.6897] CT
0.424 GC
/Helvetica 6 F
GS
[1 0 0 1 0 0] CT
-24.5 2 moveto 
1 -1 scale
(In_active_labour) t 
GR
GR
GS
[0.71287 0 0 0.71287 391.3935 364.59259] CT
0.424 GC
/Helvetica 6 F
GS
[1 0 0 1 0 0] CT
-29 2 moveto 
1 -1 scale
(Inadequate_history) t 
GR
GR
GS
[0.71287 0 0 0.71287 245.85708 247.69782] CT
0.427 GC
/Helvetica 6 F
GS
[1 0 0 1 0 0] CT
-44 2 moveto 
1 -1 scale
(Increased_work_of_breathing) t 
GR
GR
GS
[0.71287 0 0 0.71287 174.45113 180.36517] CT
0.431 GC
/Helvetica 6 F
GS
[1 0 0 1 0 0] CT
-28 2 moveto 
1 -1 scale
(Inhalational_injury) t 
GR
GR
GS
[0.71287 0 0 0.71287 600.73775 296.28747] CT
0.431 GC
/Helvetica 6 F
GS
[1 0 0 1 0 0] CT
-35.5 2 moveto 
1 -1 scale
(Presenting_foetal_parts) t 
GR
GR
GS
[0.71287 0 0 0.71287 426.25332 255.22989] CT
0.435 GC
/Helvetica 6 F
GS
[1 0 0 1 0 0] CT
-13 2 moveto 
1 -1 scale
(Priapism) t 
GR
GR
GS
[0.71287 0 0 0.71287 358.90482 121.52352] CT
0.435 GC
/Helvetica 6 F
GS
[1 0 0 1 0 0] CT
-38 2 moveto 
1 -1 scale
(Prolapsed_umbilical_cord) t 
GR
GR
GS
[0.71287 0 0 0.71287 492.98241 83.99722] CT
0.439 GC
/Helvetica 6 F
GS
[1 0 0 1 0 0] CT
-50.5 2 moveto 
1 -1 scale
(Risk_of_continued_contamination) t 
GR
GR
GS
[0.71287 0 0 0.71287 231.65701 216.93993] CT
0.443 GC
/Helvetica 6 F
GS
[1 0 0 1 0 0] CT
-26.5 2 moveto 
1 -1 scale
(Scrotal_gangrene) t 
GR
GR
GS
[0.71287 0 0 0.71287 59.0692 348.32366] CT
0.443 GC
/Helvetica 6 F
GS
[1 0 0 1 0 0] CT
-47 2 moveto 
1 -1 scale
(Significant_history_of_GI_bleed) t 
GR
GR
GS
[0.71287 0 0 0.71287 451.66746 305.87484] CT
0.447 GC
/Helvetica 6 F
GS
[1 0 0 1 0 0] CT
-22 2 moveto 
1 -1 scale
(Unresponsive_) t 
GR
GR
GS
[0.71287 0 0 0.71287 481.87116 218.41929] CT
0.451 GC
/Helvetica 6 F
GS
[1 0 0 1 0 0] CT
-11 2 moveto 
1 -1 scale
(alcohol) t 
GR
GR
%%Trailer
%%Pages: 1
%%EOF
